{
    "ZZ": 12.23,
    "WZ": 27.55,
    "WW": 76.25,

    "ST_t-channel_antitop_5f_InclusiveDecays": 32.51,
    "ST_t-channel_top_5f_InclusiveDecays": 3.549,
    "ST_tW_antitop_5f_inclusiveDecays": 32.45,
    "ST_tW_top_5f_inclusiveDecays": 71.75,
    "ST_s-channel_4f_leptonDecays": 119.7,

    "TTTo2L2Nu": 88.29,
    "TTToHadronic": 377.96,
    "TTToSemiLeptonic": 365.34,

    "WJetsToLNu_HT-70To100": 0,
    "WJetsToLNu_HT-100To200": 1244.0,
    "WJetsToLNu_HT-200To400": 337.8,
    "WJetsToLNu_HT-400To600": 44.93,
    "WJetsToLNu_HT-600To800": 11.19,
    "WJetsToLNu_HT-800To1200": 4.926,
    "WJetsToLNu_HT-1200To2500": 1.152,
    "WJetsToLNu_HT-2500ToInf": 0.02646,


    "DYJetsToLL_M-50_HT-70to100": 0.0,
    "DYJetsToLL_M-50_HT-100to200": 0.0,
    "DYJetsToLL_M-50_HT-200to400": 0.0,
    "DYJetsToLL_M-50_HT-400to600": 0.0,
    "DYJetsToLL_M-50_HT-600to800": 0.0,
    "DYJetsToLL_M-50_HT-800to1200": 0.0,
    "DYJetsToLL_M-50_HT-1200to2500": 0.0,
    "DYJetsToLL_M-50_HT-2500toInf": 0.0,


    "DYJetsToLL_M-50": 5379.0,
    "DYJetsToLL_M-10to50": 78.41
    
}