{
    "2016": {
        "jet_id": 3,
        "jet_eta": 2.4,

        "TvsQCD": {
            "L":0.50,
            "M": 0.73,
            "T": 0.96
        },

        "WvsQCD": {
            "L":0.68,
            "M": 0.94,
            "T": 0.97
        }
    },

    "2016APV" : {
        "jet_id": 3,
        "jet_eta": 2.4,
        
        "TvsQCD": {
            "L":0.49,
            "M": 0.74,
            "T": 0.96
        },

        "WvsQCD": {
            "L":0.67,
            "M": 0.93,
            "T": 0.97
        }
    },

    "2017": {
        "jet_id": 2,
        "jet_eta": 2.5,
        
        "TvsQCD": {
            "L":0.58,
            "M": 0.80,
            "T": 0.97
        },

        "WvsQCD": {
            "L":0.71,
            "M": 0.94,
            "T": 0.98
        }
    },

    "2018": {
        "jet_id": 2,
        "jet_eta": 2.5,
        
        "TvsQCD": {
            "L":0.58,
            "M": 0.80,
            "T": 0.97
        },

        "WvsQCD": {
            "L":0.70,
            "M": 0.94,
            "T": 0.98
        }
    }


}