{
    "2016": {
        "ele": ["Ele27_WPTight_Gsf"], 
        "mu": ["IsoMu24"],
        "tau": ["PFMETNoMu120_PFMHTNoMu120_IDTight"]
    }, 
    "2017": {
        "ele": ["Ele35_WPTight_Gsf"], 
        "mu": ["IsoMu27"],
        "tau": ["PFMETNoMu120_PFMHTNoMu120_IDTight"
                ],
        "tau_Zprime": ["DoubleTightChargedIsoPFTau35_Trk1_TightID_eta2p1_Reg",
                       "DoubleTightChargedIsoPFTau35_Trk1_eta2p1_Reg",
                        "DoubleTightChargedIsoPFTau40_Trk1_TightID_eta2p1_Reg",
                        "DoubleTightChargedIsoPFTau40_Trk1_eta2p1_Reg"],
        "tau_Zprime_thesis": ["DoubleMediumChargedIsoPFTau35_Trk1_eta2p1_Reg"]
    }, 
    "2018": {
        "ele": ["Ele32_WPTight_Gsf"], 
        "mu": ["IsoMu24"],
        "tau": ["PFMETNoMu120_PFMHTNoMu120_IDTight"]
    }
}