{
    "DYJetsToLL_M-50_HT-70to100_11": [
        "/store/mc/RunIISummer20UL17NanoAODv9/DYJetsToLL_M-50_HT-70to100_TuneCP5_PSweights_13TeV-madgraphMLM-pythia8/NANOAODSIM/106X_mc2017_realistic_v9-v1/70000/047574A8-305D-8542-AE2B-2DC269F9C967.root"
    ]
}