{
    "DYJetsToLL_M-50_HT-200to400_10": [
        "/store/mc/RunIISummer20UL17NanoAODv9/DYJetsToLL_M-50_HT-200to400_TuneCP5_PSweights_13TeV-madgraphMLM-pythia8/NANOAODSIM/106X_mc2017_realistic_v9-v1/270000/7DF3412A-C1DD-8F48-9EFA-542F69EE8466.root",
        "/store/mc/RunIISummer20UL17NanoAODv9/DYJetsToLL_M-50_HT-200to400_TuneCP5_PSweights_13TeV-madgraphMLM-pythia8/NANOAODSIM/106X_mc2017_realistic_v9-v1/270000/8C1EC47A-B30C-8C44-B367-78451EA0D2CE.root"
    ]
}