{
    "DYJetsToLL_M-50_HT-100to200_9": [
        "/store/mc/RunIISummer20UL17NanoAODv9/DYJetsToLL_M-50_HT-100to200_TuneCP5_PSweights_13TeV-madgraphMLM-pythia8/NANOAODSIM/106X_mc2017_realistic_v9-v1/280000/B74EAF27-C166-D349-AB39-F258C9BC5F95.root"
    ]
}