{
    "DYJetsToLL_M-50_HT-800to1200_12": [
        "/store/mc/RunIISummer20UL17NanoAODv9/DYJetsToLL_M-50_HT-800to1200_TuneCP5_PSweights_13TeV-madgraphMLM-pythia8/NANOAODSIM/106X_mc2017_realistic_v9-v1/280000/C6F94102-2ED5-9146-8CC7-8AD6C5006969.root"
    ]
}