{
    "DYJetsToLL_M-50_HT-1200to2500_11": [
        "/store/mc/RunIISummer20UL17NanoAODv9/DYJetsToLL_M-50_HT-1200to2500_TuneCP5_PSweights_13TeV-madgraphMLM-pythia8/NANOAODSIM/106X_mc2017_realistic_v9-v1/260000/7B4B96B1-B69A-7947-A0B4-2D55FD7F3409.root"
    ]
}