{
    "DYJetsToLL_M-50_HT-1200to2500_7": [
        "/store/mc/RunIISummer20UL17NanoAODv9/DYJetsToLL_M-50_HT-1200to2500_TuneCP5_PSweights_13TeV-madgraphMLM-pythia8/NANOAODSIM/106X_mc2017_realistic_v9-v1/260000/559C0D51-0ABC-1E44-B30B-8BEA8A670B22.root"
    ]
}