{
    "DYJetsToLL_M-50_HT-70to100_8": [
        "/store/mc/RunIISummer20UL17NanoAODv9/DYJetsToLL_M-50_HT-70to100_TuneCP5_PSweights_13TeV-madgraphMLM-pythia8/NANOAODSIM/106X_mc2017_realistic_v9-v1/280000/3E6B301E-AE6D-AA47-9C33-D72BB2ECA14A.root"
    ]
}