{
    "DYJetsToLL_M-50_HT-800to1200_8": [
        "/store/mc/RunIISummer20UL17NanoAODv9/DYJetsToLL_M-50_HT-800to1200_TuneCP5_PSweights_13TeV-madgraphMLM-pythia8/NANOAODSIM/106X_mc2017_realistic_v9-v1/280000/2C65F055-3035-7C43-9649-A3E032F702CC.root"
    ]
}