{
    "DYJetsToLL_M-50_HT-400to600_1": [
        "/store/mc/RunIISummer20UL17NanoAODv9/DYJetsToLL_M-50_HT-400to600_TuneCP5_PSweights_13TeV-madgraphMLM-pythia8/NANOAODSIM/106X_mc2017_realistic_v9-v1/120000/1F5A8633-EF99-A849-A5E5-04F50B2EC6C3.root",
        "/store/mc/RunIISummer20UL17NanoAODv9/DYJetsToLL_M-50_HT-400to600_TuneCP5_PSweights_13TeV-madgraphMLM-pythia8/NANOAODSIM/106X_mc2017_realistic_v9-v1/120000/A2E9F9EB-341F-6E46-A49A-1F4BC56B4E16.root"
    ]
}