{
    "DYJetsToLL_M-50_HT-200to400_5": [
        "/store/mc/RunIISummer20UL17NanoAODv9/DYJetsToLL_M-50_HT-200to400_TuneCP5_PSweights_13TeV-madgraphMLM-pythia8/NANOAODSIM/106X_mc2017_realistic_v9-v1/120000/B7C369CE-C681-2049-A8CC-D6B17BE64305.root",
        "/store/mc/RunIISummer20UL17NanoAODv9/DYJetsToLL_M-50_HT-200to400_TuneCP5_PSweights_13TeV-madgraphMLM-pythia8/NANOAODSIM/106X_mc2017_realistic_v9-v1/120000/E75E1BB5-78EC-C948-9CAA-2F077A30B3B4.root",
        "/store/mc/RunIISummer20UL17NanoAODv9/DYJetsToLL_M-50_HT-200to400_TuneCP5_PSweights_13TeV-madgraphMLM-pythia8/NANOAODSIM/106X_mc2017_realistic_v9-v1/130000/49FE8A3C-BF62-9940-A0BD-AF2CC2996926.root"
    ]
}