{
    "DYJetsToLL_M-50_HT-600to800_9": [
        "/store/mc/RunIISummer20UL17NanoAODv9/DYJetsToLL_M-50_HT-600to800_TuneCP5_PSweights_13TeV-madgraphMLM-pythia8/NANOAODSIM/106X_mc2017_realistic_v9-v1/280000/C78F8B75-A875-304B-B9B6-D51CE89CA014.root"
    ]
}