{
    "DYJetsToLL_M-50_HT-800to1200_6": [
        "/store/mc/RunIISummer20UL17NanoAODv9/DYJetsToLL_M-50_HT-800to1200_TuneCP5_PSweights_13TeV-madgraphMLM-pythia8/NANOAODSIM/106X_mc2017_realistic_v9-v1/120000/AC3866C1-DCD6-F24D-8050-4BCC0EA15607.root"
    ]
}