{
    "DYJetsToLL_M-50_HT-2500toInf_5": [
        "/store/mc/RunIISummer20UL17NanoAODv9/DYJetsToLL_M-50_HT-2500toInf_TuneCP5_PSweights_13TeV-madgraphMLM-pythia8/NANOAODSIM/106X_mc2017_realistic_v9-v1/260000/4E295A5F-A25D-5A4E-9FC9-03538681C335.root"
    ]
}