{
    "DYJetsToLL_M-50_15": [
        "/store/mc/RunIISummer20UL17NanoAODv9/DYJetsToLL_M-50_TuneCP5_13TeV-madgraphMLM-pythia8/NANOAODSIM/106X_mc2017_realistic_v9_ext1-v1/70000/BF4F7AF8-B777-E147-A4B8-AA45F2427EA3.root",
        "/store/mc/RunIISummer20UL17NanoAODv9/DYJetsToLL_M-50_TuneCP5_13TeV-madgraphMLM-pythia8/NANOAODSIM/106X_mc2017_realistic_v9_ext1-v1/70000/C0F1198D-E967-4649-B851-C413CDE73F59.root",
        "/store/mc/RunIISummer20UL17NanoAODv9/DYJetsToLL_M-50_TuneCP5_13TeV-madgraphMLM-pythia8/NANOAODSIM/106X_mc2017_realistic_v9_ext1-v1/70000/CB442104-82F9-8841-9F07-DA66F235F03C.root",
        "/store/mc/RunIISummer20UL17NanoAODv9/DYJetsToLL_M-50_TuneCP5_13TeV-madgraphMLM-pythia8/NANOAODSIM/106X_mc2017_realistic_v9_ext1-v1/70000/CF8F6359-4F62-CA41-A43C-83454246B816.root",
        "/store/mc/RunIISummer20UL17NanoAODv9/DYJetsToLL_M-50_TuneCP5_13TeV-madgraphMLM-pythia8/NANOAODSIM/106X_mc2017_realistic_v9_ext1-v1/70000/D3ACB65C-E43D-B34D-BE14-CC13DAFAD4F2.root",
        "/store/mc/RunIISummer20UL17NanoAODv9/DYJetsToLL_M-50_TuneCP5_13TeV-madgraphMLM-pythia8/NANOAODSIM/106X_mc2017_realistic_v9_ext1-v1/70000/DFC9772E-2515-B44E-9B50-68D8C4A03F45.root",
        "/store/mc/RunIISummer20UL17NanoAODv9/DYJetsToLL_M-50_TuneCP5_13TeV-madgraphMLM-pythia8/NANOAODSIM/106X_mc2017_realistic_v9_ext1-v1/70000/E3F1FE92-AAB1-9B48-AB0A-C4CCB50DD41D.root",
        "/store/mc/RunIISummer20UL17NanoAODv9/DYJetsToLL_M-50_TuneCP5_13TeV-madgraphMLM-pythia8/NANOAODSIM/106X_mc2017_realistic_v9_ext1-v1/70000/EAD17F50-D45F-B749-BF88-131677F24148.root",
        "/store/mc/RunIISummer20UL17NanoAODv9/DYJetsToLL_M-50_TuneCP5_13TeV-madgraphMLM-pythia8/NANOAODSIM/106X_mc2017_realistic_v9_ext1-v1/70000/EFC97DD7-FAD8-BD48-BF91-8E5C9B13D045.root",
        "/store/mc/RunIISummer20UL17NanoAODv9/DYJetsToLL_M-50_TuneCP5_13TeV-madgraphMLM-pythia8/NANOAODSIM/106X_mc2017_realistic_v9_ext1-v1/70000/F2C813B6-5BFA-1E41-B693-CFE68F9FEB90.root",
        "/store/mc/RunIISummer20UL17NanoAODv9/DYJetsToLL_M-50_TuneCP5_13TeV-madgraphMLM-pythia8/NANOAODSIM/106X_mc2017_realistic_v9_ext1-v1/70000/F4A592CB-F21C-8146-B9FA-DB939622BAD7.root",
        "/store/mc/RunIISummer20UL17NanoAODv9/DYJetsToLL_M-50_TuneCP5_13TeV-madgraphMLM-pythia8/NANOAODSIM/106X_mc2017_realistic_v9_ext1-v1/70000/FB79A5B5-436A-C646-8D45-C5EEF3E29224.root"
    ]
}