{
    "DYJetsToLL_M-50_HT-400to600_13": [
        "/store/mc/RunIISummer20UL17NanoAODv9/DYJetsToLL_M-50_HT-400to600_TuneCP5_PSweights_13TeV-madgraphMLM-pythia8/NANOAODSIM/106X_mc2017_realistic_v9-v1/280000/EDEFBCE4-7C78-1542-BF0A-6595D3F04F9B.root"
    ]
}