{
    "DYJetsToLL_M-50_HT-1200to2500_13": [
        "/store/mc/RunIISummer20UL17NanoAODv9/DYJetsToLL_M-50_HT-1200to2500_TuneCP5_PSweights_13TeV-madgraphMLM-pythia8/NANOAODSIM/106X_mc2017_realistic_v9-v1/260000/C525D3F0-C1FE-894F-A974-6BAC81A06DD7.root"
    ]
}