{
    "DYJetsToLL_M-10to50_2": [
        "/store/mc/RunIISummer20UL17NanoAODv9/DYJetsToLL_M-10to50_TuneCP5_13TeV-madgraphMLM-pythia8/NANOAODSIM/106X_mc2017_realistic_v9-v1/120000/366BD5FC-3409-A54F-9AC1-0D714308968A.root",
        "/store/mc/RunIISummer20UL17NanoAODv9/DYJetsToLL_M-10to50_TuneCP5_13TeV-madgraphMLM-pythia8/NANOAODSIM/106X_mc2017_realistic_v9-v1/120000/3D332FC5-D316-6B40-9F1A-F3921FA15A27.root",
        "/store/mc/RunIISummer20UL17NanoAODv9/DYJetsToLL_M-10to50_TuneCP5_13TeV-madgraphMLM-pythia8/NANOAODSIM/106X_mc2017_realistic_v9-v1/120000/3EAA619B-EA39-5349-A9DA-E1FD1DAEBD56.root",
        "/store/mc/RunIISummer20UL17NanoAODv9/DYJetsToLL_M-10to50_TuneCP5_13TeV-madgraphMLM-pythia8/NANOAODSIM/106X_mc2017_realistic_v9-v1/120000/48D0609B-09F1-2747-BAE2-6A2D8918B6F6.root",
        "/store/mc/RunIISummer20UL17NanoAODv9/DYJetsToLL_M-10to50_TuneCP5_13TeV-madgraphMLM-pythia8/NANOAODSIM/106X_mc2017_realistic_v9-v1/120000/4C604A37-59DC-F34C-A3A2-7EE67910E6A3.root",
        "/store/mc/RunIISummer20UL17NanoAODv9/DYJetsToLL_M-10to50_TuneCP5_13TeV-madgraphMLM-pythia8/NANOAODSIM/106X_mc2017_realistic_v9-v1/120000/4FDC0A8F-C12B-F949-99C9-746BC5F67721.root"
    ]
}