{
    "DYJetsToLL_M-50_HT-800to1200_9": [
        "/store/mc/RunIISummer20UL17NanoAODv9/DYJetsToLL_M-50_HT-800to1200_TuneCP5_PSweights_13TeV-madgraphMLM-pythia8/NANOAODSIM/106X_mc2017_realistic_v9-v1/280000/452BBACE-C174-B243-AA54-40C1362C734C.root"
    ]
}