{
    "DYJetsToLL_M-50_HT-2500toInf_1": [
        "/store/mc/RunIISummer20UL17NanoAODv9/DYJetsToLL_M-50_HT-2500toInf_TuneCP5_PSweights_13TeV-madgraphMLM-pythia8/NANOAODSIM/106X_mc2017_realistic_v9-v1/100000/0983C657-9CA5-2440-A21A-428B73249B32.root"
    ]
}