{
    "DYJetsToLL_M-50_HT-200to400_13": [
        "/store/mc/RunIISummer20UL17NanoAODv9/DYJetsToLL_M-50_HT-200to400_TuneCP5_PSweights_13TeV-madgraphMLM-pythia8/NANOAODSIM/106X_mc2017_realistic_v9-v1/270000/DE020380-2003-E142-A376-E7F50C09A5C7.root",
        "/store/mc/RunIISummer20UL17NanoAODv9/DYJetsToLL_M-50_HT-200to400_TuneCP5_PSweights_13TeV-madgraphMLM-pythia8/NANOAODSIM/106X_mc2017_realistic_v9-v1/270000/E4A1256B-15E8-424D-999C-9EA6F8D821FD.root"
    ]
}