{
    "DYJetsToLL_M-50_HT-1200to2500_1": [
        "/store/mc/RunIISummer20UL17NanoAODv9/DYJetsToLL_M-50_HT-1200to2500_TuneCP5_PSweights_13TeV-madgraphMLM-pythia8/NANOAODSIM/106X_mc2017_realistic_v9-v1/250000/E03BE919-6322-9C4D-81D9-84AEBBD34002.root"
    ]
}