{
    "DYJetsToLL_M-50_HT-100to200_10": [
        "/store/mc/RunIISummer20UL17NanoAODv9/DYJetsToLL_M-50_HT-100to200_TuneCP5_PSweights_13TeV-madgraphMLM-pythia8/NANOAODSIM/106X_mc2017_realistic_v9-v1/280000/D073171A-20A7-C446-BAAB-334C8580BF4B.root"
    ]
}