{
    "DYJetsToLL_M-50_8": [
        "/store/mc/RunIISummer20UL17NanoAODv9/DYJetsToLL_M-50_TuneCP5_13TeV-madgraphMLM-pythia8/NANOAODSIM/106X_mc2017_realistic_v9_ext1-v1/130000/F2EDA2DB-C62D-9E4F-A6D6-276BE54FB05F.root",
        "/store/mc/RunIISummer20UL17NanoAODv9/DYJetsToLL_M-50_TuneCP5_13TeV-madgraphMLM-pythia8/NANOAODSIM/106X_mc2017_realistic_v9_ext1-v1/130000/F38ED3B8-401B-8346-9F36-173AA3F10E4B.root",
        "/store/mc/RunIISummer20UL17NanoAODv9/DYJetsToLL_M-50_TuneCP5_13TeV-madgraphMLM-pythia8/NANOAODSIM/106X_mc2017_realistic_v9_ext1-v1/270000/005EDEE9-3613-C640-8123-B86B0960E850.root",
        "/store/mc/RunIISummer20UL17NanoAODv9/DYJetsToLL_M-50_TuneCP5_13TeV-madgraphMLM-pythia8/NANOAODSIM/106X_mc2017_realistic_v9_ext1-v1/270000/00B93E59-813E-4148-B399-AA9A3F3BECFF.root",
        "/store/mc/RunIISummer20UL17NanoAODv9/DYJetsToLL_M-50_TuneCP5_13TeV-madgraphMLM-pythia8/NANOAODSIM/106X_mc2017_realistic_v9_ext1-v1/270000/0D769354-BFD4-DF42-A642-DEB9403CEE95.root",
        "/store/mc/RunIISummer20UL17NanoAODv9/DYJetsToLL_M-50_TuneCP5_13TeV-madgraphMLM-pythia8/NANOAODSIM/106X_mc2017_realistic_v9_ext1-v1/270000/1FD9E301-E57B-0F40-969A-A4B0C557C08D.root",
        "/store/mc/RunIISummer20UL17NanoAODv9/DYJetsToLL_M-50_TuneCP5_13TeV-madgraphMLM-pythia8/NANOAODSIM/106X_mc2017_realistic_v9_ext1-v1/270000/40B0C28C-D1C6-3C4A-AB9C-81A44B05134E.root",
        "/store/mc/RunIISummer20UL17NanoAODv9/DYJetsToLL_M-50_TuneCP5_13TeV-madgraphMLM-pythia8/NANOAODSIM/106X_mc2017_realistic_v9_ext1-v1/270000/51B62F88-AC1F-C14C-B236-7E036D55E159.root",
        "/store/mc/RunIISummer20UL17NanoAODv9/DYJetsToLL_M-50_TuneCP5_13TeV-madgraphMLM-pythia8/NANOAODSIM/106X_mc2017_realistic_v9_ext1-v1/270000/82F94965-E65D-DD43-BF38-B5916AC6AD08.root",
        "/store/mc/RunIISummer20UL17NanoAODv9/DYJetsToLL_M-50_TuneCP5_13TeV-madgraphMLM-pythia8/NANOAODSIM/106X_mc2017_realistic_v9_ext1-v1/270000/8F033467-B295-B344-A585-7E6FFD67715A.root",
        "/store/mc/RunIISummer20UL17NanoAODv9/DYJetsToLL_M-50_TuneCP5_13TeV-madgraphMLM-pythia8/NANOAODSIM/106X_mc2017_realistic_v9_ext1-v1/270000/AA1D335C-002C-4A4C-84EE-5DA0B8753789.root",
        "/store/mc/RunIISummer20UL17NanoAODv9/DYJetsToLL_M-50_TuneCP5_13TeV-madgraphMLM-pythia8/NANOAODSIM/106X_mc2017_realistic_v9_ext1-v1/270000/B2E8CA36-A427-E444-A1B2-69D356A30DBA.root",
        "/store/mc/RunIISummer20UL17NanoAODv9/DYJetsToLL_M-50_TuneCP5_13TeV-madgraphMLM-pythia8/NANOAODSIM/106X_mc2017_realistic_v9_ext1-v1/270000/B415086A-740A-E140-B595-C1EC4CB45281.root"
    ]
}