{
    "DYJetsToLL_M-50_HT-600to800_10": [
        "/store/mc/RunIISummer20UL17NanoAODv9/DYJetsToLL_M-50_HT-600to800_TuneCP5_PSweights_13TeV-madgraphMLM-pythia8/NANOAODSIM/106X_mc2017_realistic_v9-v1/70000/1369DFB5-7010-3D44-AD57-F13223963631.root"
    ]
}