{
    "DYJetsToLL_M-50_HT-400to600_12": [
        "/store/mc/RunIISummer20UL17NanoAODv9/DYJetsToLL_M-50_HT-400to600_TuneCP5_PSweights_13TeV-madgraphMLM-pythia8/NANOAODSIM/106X_mc2017_realistic_v9-v1/280000/D51E995A-3C7D-0A4E-AD5B-D3FD9045C3BF.root"
    ]
}