{
    "DYJetsToLL_M-10to50_7": [
        "/store/mc/RunIISummer20UL17NanoAODv9/DYJetsToLL_M-10to50_TuneCP5_13TeV-madgraphMLM-pythia8/NANOAODSIM/106X_mc2017_realistic_v9-v1/280000/1F9AEC1C-3894-AF41-850B-8F4E864FFA81.root",
        "/store/mc/RunIISummer20UL17NanoAODv9/DYJetsToLL_M-10to50_TuneCP5_13TeV-madgraphMLM-pythia8/NANOAODSIM/106X_mc2017_realistic_v9-v1/280000/23C9C1D9-549E-4948-A050-E8CC3C3D09D9.root",
        "/store/mc/RunIISummer20UL17NanoAODv9/DYJetsToLL_M-10to50_TuneCP5_13TeV-madgraphMLM-pythia8/NANOAODSIM/106X_mc2017_realistic_v9-v1/280000/536175DF-2C1D-2743-8644-D3F60A9D006C.root",
        "/store/mc/RunIISummer20UL17NanoAODv9/DYJetsToLL_M-10to50_TuneCP5_13TeV-madgraphMLM-pythia8/NANOAODSIM/106X_mc2017_realistic_v9-v1/280000/5A8A21DC-D798-1041-AB47-E425C70DADAB.root",
        "/store/mc/RunIISummer20UL17NanoAODv9/DYJetsToLL_M-10to50_TuneCP5_13TeV-madgraphMLM-pythia8/NANOAODSIM/106X_mc2017_realistic_v9-v1/280000/6AEB66E9-C0BF-6E4B-B790-8ED3A4CCB5B3.root"
    ]
}