{
    "DYJetsToLL_M-50_HT-100to200_15": [
        "/store/mc/RunIISummer20UL17NanoAODv9/DYJetsToLL_M-50_HT-100to200_TuneCP5_PSweights_13TeV-madgraphMLM-pythia8/NANOAODSIM/106X_mc2017_realistic_v9-v1/70000/AB0D6F4C-AB34-CC4B-8D9F-4D1C2A13E7BB.root"
    ]
}