{
    "DYJetsToLL_M-50_HT-70to100_7": [
        "/store/mc/RunIISummer20UL17NanoAODv9/DYJetsToLL_M-50_HT-70to100_TuneCP5_PSweights_13TeV-madgraphMLM-pythia8/NANOAODSIM/106X_mc2017_realistic_v9-v1/270000/D309FDA8-D23C-EB40-993E-50718DBC0F6D.root"
    ]
}