{
    "DYJetsToLL_M-50_HT-100to200_12": [
        "/store/mc/RunIISummer20UL17NanoAODv9/DYJetsToLL_M-50_HT-100to200_TuneCP5_PSweights_13TeV-madgraphMLM-pythia8/NANOAODSIM/106X_mc2017_realistic_v9-v1/70000/471E5CCD-4571-144D-87EA-F611BFC99E29.root"
    ]
}