{
    "DYJetsToLL_M-10to50_4": [
        "/store/mc/RunIISummer20UL17NanoAODv9/DYJetsToLL_M-10to50_TuneCP5_13TeV-madgraphMLM-pythia8/NANOAODSIM/106X_mc2017_realistic_v9-v1/120000/72187F8F-3A32-E147-90F4-5DEEE6522CFE.root",
        "/store/mc/RunIISummer20UL17NanoAODv9/DYJetsToLL_M-10to50_TuneCP5_13TeV-madgraphMLM-pythia8/NANOAODSIM/106X_mc2017_realistic_v9-v1/120000/723D1B92-6157-2B48-915F-E06092B0C29A.root",
        "/store/mc/RunIISummer20UL17NanoAODv9/DYJetsToLL_M-10to50_TuneCP5_13TeV-madgraphMLM-pythia8/NANOAODSIM/106X_mc2017_realistic_v9-v1/120000/7B46A646-7E61-7743-BBE2-99BA66969BC6.root",
        "/store/mc/RunIISummer20UL17NanoAODv9/DYJetsToLL_M-10to50_TuneCP5_13TeV-madgraphMLM-pythia8/NANOAODSIM/106X_mc2017_realistic_v9-v1/120000/85E13ED5-5817-4445-9140-1A47286C9788.root",
        "/store/mc/RunIISummer20UL17NanoAODv9/DYJetsToLL_M-10to50_TuneCP5_13TeV-madgraphMLM-pythia8/NANOAODSIM/106X_mc2017_realistic_v9-v1/120000/9814333E-91EF-254D-9BEE-7A7733593A65.root"
    ]
}