{
    "DYJetsToLL_M-50_HT-600to800_11": [
        "/store/mc/RunIISummer20UL17NanoAODv9/DYJetsToLL_M-50_HT-600to800_TuneCP5_PSweights_13TeV-madgraphMLM-pythia8/NANOAODSIM/106X_mc2017_realistic_v9-v1/70000/84F0B699-EE67-6E42-90B2-823C611E7AFF.root"
    ]
}