{
    "DYJetsToLL_M-50_HT-70to100_4": [
        "/store/mc/RunIISummer20UL17NanoAODv9/DYJetsToLL_M-50_HT-70to100_TuneCP5_PSweights_13TeV-madgraphMLM-pythia8/NANOAODSIM/106X_mc2017_realistic_v9-v1/120000/D6DC6146-505A-7740-99CF-E1F78330A096.root"
    ]
}