{
    "DYJetsToLL_M-50_HT-1200to2500_5": [
        "/store/mc/RunIISummer20UL17NanoAODv9/DYJetsToLL_M-50_HT-1200to2500_TuneCP5_PSweights_13TeV-madgraphMLM-pythia8/NANOAODSIM/106X_mc2017_realistic_v9-v1/260000/4610EDB2-030B-C24A-8C74-4871D3643917.root"
    ]
}