{
    "DYJetsToLL_M-50_HT-400to600_14": [
        "/store/mc/RunIISummer20UL17NanoAODv9/DYJetsToLL_M-50_HT-400to600_TuneCP5_PSweights_13TeV-madgraphMLM-pythia8/NANOAODSIM/106X_mc2017_realistic_v9-v1/70000/071935B0-08DA-014A-8513-A1ED9ECE2B51.root"
    ]
}