{
    "DYJetsToLL_M-50_HT-200to400_6": [
        "/store/mc/RunIISummer20UL17NanoAODv9/DYJetsToLL_M-50_HT-200to400_TuneCP5_PSweights_13TeV-madgraphMLM-pythia8/NANOAODSIM/106X_mc2017_realistic_v9-v1/270000/0083D283-5F85-0C41-B3E7-EEF52A7A3FA7.root",
        "/store/mc/RunIISummer20UL17NanoAODv9/DYJetsToLL_M-50_HT-200to400_TuneCP5_PSweights_13TeV-madgraphMLM-pythia8/NANOAODSIM/106X_mc2017_realistic_v9-v1/270000/318041C1-AB5F-8146-AB6C-58A06F885376.root",
        "/store/mc/RunIISummer20UL17NanoAODv9/DYJetsToLL_M-50_HT-200to400_TuneCP5_PSweights_13TeV-madgraphMLM-pythia8/NANOAODSIM/106X_mc2017_realistic_v9-v1/270000/33DBDDE7-AD23-D344-B385-7AB25DDB60ED.root"
    ]
}