{
    "DYJetsToLL_M-50_HT-1200to2500_8": [
        "/store/mc/RunIISummer20UL17NanoAODv9/DYJetsToLL_M-50_HT-1200to2500_TuneCP5_PSweights_13TeV-madgraphMLM-pythia8/NANOAODSIM/106X_mc2017_realistic_v9-v1/260000/67380743-642A-EA46-8D41-3F73DC035499.root"
    ]
}