{
    "DYJetsToLL_M-50_HT-70to100_13": [
        "/store/mc/RunIISummer20UL17NanoAODv9/DYJetsToLL_M-50_HT-70to100_TuneCP5_PSweights_13TeV-madgraphMLM-pythia8/NANOAODSIM/106X_mc2017_realistic_v9-v1/70000/62B89745-C7EA-F040-9A06-674ECD505998.root"
    ]
}