{
    "DYJetsToLL_M-50_13": [
        "/store/mc/RunIISummer20UL17NanoAODv9/DYJetsToLL_M-50_TuneCP5_13TeV-madgraphMLM-pythia8/NANOAODSIM/106X_mc2017_realistic_v9_ext1-v1/70000/2AE83A82-3FC0-404C-96BA-5DAB79BCB08F.root",
        "/store/mc/RunIISummer20UL17NanoAODv9/DYJetsToLL_M-50_TuneCP5_13TeV-madgraphMLM-pythia8/NANOAODSIM/106X_mc2017_realistic_v9_ext1-v1/70000/2B1721CA-09B6-244E-9D8C-049BC3A185B7.root",
        "/store/mc/RunIISummer20UL17NanoAODv9/DYJetsToLL_M-50_TuneCP5_13TeV-madgraphMLM-pythia8/NANOAODSIM/106X_mc2017_realistic_v9_ext1-v1/70000/39CFF063-FE54-6F4E-A5C2-95CC31ED0AED.root",
        "/store/mc/RunIISummer20UL17NanoAODv9/DYJetsToLL_M-50_TuneCP5_13TeV-madgraphMLM-pythia8/NANOAODSIM/106X_mc2017_realistic_v9_ext1-v1/70000/3B0006CB-2880-4542-A6B5-60888B672241.root",
        "/store/mc/RunIISummer20UL17NanoAODv9/DYJetsToLL_M-50_TuneCP5_13TeV-madgraphMLM-pythia8/NANOAODSIM/106X_mc2017_realistic_v9_ext1-v1/70000/48B70E73-0645-FB4B-BDB7-0AA701E435E0.root",
        "/store/mc/RunIISummer20UL17NanoAODv9/DYJetsToLL_M-50_TuneCP5_13TeV-madgraphMLM-pythia8/NANOAODSIM/106X_mc2017_realistic_v9_ext1-v1/70000/49CD1A97-76F5-6A41-A3B2-0C7A397A8E1C.root",
        "/store/mc/RunIISummer20UL17NanoAODv9/DYJetsToLL_M-50_TuneCP5_13TeV-madgraphMLM-pythia8/NANOAODSIM/106X_mc2017_realistic_v9_ext1-v1/70000/5B5B8A97-96C1-D949-8AC7-2EAFE175F3DF.root",
        "/store/mc/RunIISummer20UL17NanoAODv9/DYJetsToLL_M-50_TuneCP5_13TeV-madgraphMLM-pythia8/NANOAODSIM/106X_mc2017_realistic_v9_ext1-v1/70000/63C4E28C-5BDE-F14E-96D8-410FDFD8F961.root",
        "/store/mc/RunIISummer20UL17NanoAODv9/DYJetsToLL_M-50_TuneCP5_13TeV-madgraphMLM-pythia8/NANOAODSIM/106X_mc2017_realistic_v9_ext1-v1/70000/7E3B16DA-9F62-8F47-B886-E5341BE316F8.root",
        "/store/mc/RunIISummer20UL17NanoAODv9/DYJetsToLL_M-50_TuneCP5_13TeV-madgraphMLM-pythia8/NANOAODSIM/106X_mc2017_realistic_v9_ext1-v1/70000/7F228576-5D57-9E43-914C-89E572D65B2F.root",
        "/store/mc/RunIISummer20UL17NanoAODv9/DYJetsToLL_M-50_TuneCP5_13TeV-madgraphMLM-pythia8/NANOAODSIM/106X_mc2017_realistic_v9_ext1-v1/70000/7FB63776-AF49-F041-8B84-67D65F54702C.root",
        "/store/mc/RunIISummer20UL17NanoAODv9/DYJetsToLL_M-50_TuneCP5_13TeV-madgraphMLM-pythia8/NANOAODSIM/106X_mc2017_realistic_v9_ext1-v1/70000/87683B51-66BE-CE48-A5E5-B5E475BE5D54.root"
    ]
}