{
    "DYJetsToLL_M-50_HT-2500toInf_3": [
        "/store/mc/RunIISummer20UL17NanoAODv9/DYJetsToLL_M-50_HT-2500toInf_TuneCP5_PSweights_13TeV-madgraphMLM-pythia8/NANOAODSIM/106X_mc2017_realistic_v9-v1/260000/11C31AD6-A00B-1F43-BD46-6B8CB3963884.root"
    ]
}