{
    "DYJetsToLL_M-50_HT-70to100_15": [
        "/store/mc/RunIISummer20UL17NanoAODv9/DYJetsToLL_M-50_HT-70to100_TuneCP5_PSweights_13TeV-madgraphMLM-pythia8/NANOAODSIM/106X_mc2017_realistic_v9-v1/70000/BC85643E-9270-CF42-8FA7-9AC799C5C03E.root"
    ]
}