{
    "DYJetsToLL_M-50_HT-100to200_3": [
        "/store/mc/RunIISummer20UL17NanoAODv9/DYJetsToLL_M-50_HT-100to200_TuneCP5_PSweights_13TeV-madgraphMLM-pythia8/NANOAODSIM/106X_mc2017_realistic_v9-v1/270000/B6A033C5-560B-784C-A34D-83455586AB66.root",
        "/store/mc/RunIISummer20UL17NanoAODv9/DYJetsToLL_M-50_HT-100to200_TuneCP5_PSweights_13TeV-madgraphMLM-pythia8/NANOAODSIM/106X_mc2017_realistic_v9-v1/270000/D7F49A6B-31F6-5044-B205-C3A2487EA437.root"
    ]
}