{
    "DYJetsToLL_M-50_HT-70to100_14": [
        "/store/mc/RunIISummer20UL17NanoAODv9/DYJetsToLL_M-50_HT-70to100_TuneCP5_PSweights_13TeV-madgraphMLM-pythia8/NANOAODSIM/106X_mc2017_realistic_v9-v1/70000/713799BB-25A9-A247-ACCB-F60A21F0865E.root"
    ]
}