{
    "DYJetsToLL_M-50_HT-600to800_7": [
        "/store/mc/RunIISummer20UL17NanoAODv9/DYJetsToLL_M-50_HT-600to800_TuneCP5_PSweights_13TeV-madgraphMLM-pythia8/NANOAODSIM/106X_mc2017_realistic_v9-v1/280000/2869DB22-4742-974F-9E65-2969E9ADAB93.root"
    ]
}