{
    "SingleTau_6": [
        "/store/data/Run2017C/Tau/NANOAOD/UL2017_MiniAODv2_NanoAODv9-v1/280000/3CE1AC94-046F-1D45-9C48-8595FD83E75B.root",
        "/store/data/Run2017C/Tau/NANOAOD/UL2017_MiniAODv2_NanoAODv9-v1/280000/4F958F0C-F931-2044-BDA6-78DE01E9D8A6.root",
        "/store/data/Run2017C/Tau/NANOAOD/UL2017_MiniAODv2_NanoAODv9-v1/280000/52ACF676-E1A8-2C47-B4DC-7536FAB4A9A2.root",
        "/store/data/Run2017C/Tau/NANOAOD/UL2017_MiniAODv2_NanoAODv9-v1/280000/5745F0E9-409C-C740-A38A-E42E282CAF2F.root",
        "/store/data/Run2017C/Tau/NANOAOD/UL2017_MiniAODv2_NanoAODv9-v1/280000/6F30A269-A8A7-3548-8FC6-23731A96A672.root",
        "/store/data/Run2017C/Tau/NANOAOD/UL2017_MiniAODv2_NanoAODv9-v1/280000/9ABB3A2A-0EE7-1A40-B1D5-2C813786184B.root",
        "/store/data/Run2017C/Tau/NANOAOD/UL2017_MiniAODv2_NanoAODv9-v1/280000/A345D9D2-EAE2-0348-965F-2F8913889F5E.root",
        "/store/data/Run2017C/Tau/NANOAOD/UL2017_MiniAODv2_NanoAODv9-v1/280000/A68038D5-C8CC-DF4D-95EB-99D63A6F62A4.root",
        "/store/data/Run2017C/Tau/NANOAOD/UL2017_MiniAODv2_NanoAODv9-v1/280000/BFC834EA-F872-8344-A450-6A00C0EAE59B.root",
        "/store/data/Run2017C/Tau/NANOAOD/UL2017_MiniAODv2_NanoAODv9-v1/280000/D10BD494-3495-9345-9B38-937CB0435DC8.root",
        "/store/data/Run2017C/Tau/NANOAOD/UL2017_MiniAODv2_NanoAODv9-v1/280000/E3DFEA27-F98E-4142-96F1-B21AB00AA622.root",
        "/store/data/Run2017C/Tau/NANOAOD/UL2017_MiniAODv2_NanoAODv9-v1/280000/F2656FB6-66E8-D645-8587-00CC219C296B.root"
    ]
}