{
    "SingleTau_5": [
        "/store/data/Run2017C/Tau/NANOAOD/UL2017_MiniAODv2_NanoAODv9-v1/270000/BFBCBA4E-C875-324B-BE0D-63DD26BB3D77.root",
        "/store/data/Run2017C/Tau/NANOAOD/UL2017_MiniAODv2_NanoAODv9-v1/270000/C49F6148-485E-4A43-AC5A-A7AFA5B40F06.root",
        "/store/data/Run2017C/Tau/NANOAOD/UL2017_MiniAODv2_NanoAODv9-v1/270000/C6036B84-684A-DF4B-8B92-61E3B8D41FCF.root",
        "/store/data/Run2017C/Tau/NANOAOD/UL2017_MiniAODv2_NanoAODv9-v1/270000/C709B3D4-E6C3-774E-B1C7-3397AB626F53.root",
        "/store/data/Run2017C/Tau/NANOAOD/UL2017_MiniAODv2_NanoAODv9-v1/270000/DE3C0AE5-09B6-124E-BB0B-707C0E38EE4F.root",
        "/store/data/Run2017C/Tau/NANOAOD/UL2017_MiniAODv2_NanoAODv9-v1/270000/E4C58E89-9585-C34E-96BC-59FEB0003DEC.root",
        "/store/data/Run2017C/Tau/NANOAOD/UL2017_MiniAODv2_NanoAODv9-v1/280000/06EB27EB-E93B-384A-961F-CBD4C5A3A233.root",
        "/store/data/Run2017C/Tau/NANOAOD/UL2017_MiniAODv2_NanoAODv9-v1/280000/0CEBC059-02E0-0740-992E-8AF9FABCA68F.root",
        "/store/data/Run2017C/Tau/NANOAOD/UL2017_MiniAODv2_NanoAODv9-v1/280000/1A742CD4-C0A4-954C-A2AD-4D9A13165FD9.root",
        "/store/data/Run2017C/Tau/NANOAOD/UL2017_MiniAODv2_NanoAODv9-v1/280000/1B4C5E33-3653-4C43-AEAE-1A1E7FA09E61.root",
        "/store/data/Run2017C/Tau/NANOAOD/UL2017_MiniAODv2_NanoAODv9-v1/280000/267A5502-CA76-334C-9A0F-E201958F8A88.root",
        "/store/data/Run2017C/Tau/NANOAOD/UL2017_MiniAODv2_NanoAODv9-v1/280000/2F315DF9-E195-624F-968F-2C8E2CC3F000.root",
        "/store/data/Run2017C/Tau/NANOAOD/UL2017_MiniAODv2_NanoAODv9-v1/280000/310010A0-0259-AE45-8589-736090F18877.root"
    ]
}