{
    "SingleTau_3": [
        "/store/data/Run2017B/Tau/NANOAOD/UL2017_MiniAODv2_NanoAODv9-v1/70000/667CB039-FC80-604E-8064-90C2B4FD004E.root",
        "/store/data/Run2017B/Tau/NANOAOD/UL2017_MiniAODv2_NanoAODv9-v1/70000/98F7DE21-38DC-4841-B845-F9B1A43CDC4D.root",
        "/store/data/Run2017B/Tau/NANOAOD/UL2017_MiniAODv2_NanoAODv9-v1/70000/9E23DA84-E89B-BE49-B10C-BEA7FA366CB7.root",
        "/store/data/Run2017B/Tau/NANOAOD/UL2017_MiniAODv2_NanoAODv9-v1/70000/C4CADBF2-A79F-5A42-8E39-26AAEF682A3C.root",
        "/store/data/Run2017B/Tau/NANOAOD/UL2017_MiniAODv2_NanoAODv9-v1/70000/E3C516C8-5777-B94C-AAD2-EB4C5F2F7B38.root",
        "/store/data/Run2017B/Tau/NANOAOD/UL2017_MiniAODv2_NanoAODv9-v1/70000/F3BB5CAC-692C-5849-9804-76F49BF56890.root",
        "/store/data/Run2017C/Tau/NANOAOD/UL2017_MiniAODv2_NanoAODv9-v1/270000/0302C33C-C4F0-3545-BBE2-20AC8064F6A3.root",
        "/store/data/Run2017C/Tau/NANOAOD/UL2017_MiniAODv2_NanoAODv9-v1/270000/0A8C80D0-972F-234E-AF17-5F7E0D2830F1.root",
        "/store/data/Run2017C/Tau/NANOAOD/UL2017_MiniAODv2_NanoAODv9-v1/270000/0C028CF6-C6D3-C441-9B4F-92A76BD79EDA.root",
        "/store/data/Run2017C/Tau/NANOAOD/UL2017_MiniAODv2_NanoAODv9-v1/270000/125E562A-983C-1540-8C2D-32F495D8F27D.root",
        "/store/data/Run2017C/Tau/NANOAOD/UL2017_MiniAODv2_NanoAODv9-v1/270000/2D00406C-9796-6B41-99F6-95B230D7B632.root",
        "/store/data/Run2017C/Tau/NANOAOD/UL2017_MiniAODv2_NanoAODv9-v1/270000/391F559F-2BCB-634E-AEAE-6E8F179FBC63.root",
        "/store/data/Run2017C/Tau/NANOAOD/UL2017_MiniAODv2_NanoAODv9-v1/270000/432F9EE4-AB10-174B-89DA-45F3B63EFBF4.root"
    ]
}