{
    "SingleTau_10": [
        "/store/data/Run2017E/Tau/NANOAOD/UL2017_MiniAODv2_NanoAODv9-v2/80000/C5CB46D0-E99D-7D41-AA6C-79635A9BC073.root",
        "/store/data/Run2017E/Tau/NANOAOD/UL2017_MiniAODv2_NanoAODv9-v2/80000/CCB521E0-2EC7-D94D-BB1D-AA641EF2EBC4.root",
        "/store/data/Run2017E/Tau/NANOAOD/UL2017_MiniAODv2_NanoAODv9-v2/80000/CFBEEF60-E5E7-E64E-8EBD-26218FF90DCF.root",
        "/store/data/Run2017E/Tau/NANOAOD/UL2017_MiniAODv2_NanoAODv9-v2/80000/D02B4572-6A91-484D-9564-63F3A03BC505.root",
        "/store/data/Run2017E/Tau/NANOAOD/UL2017_MiniAODv2_NanoAODv9-v2/80000/D2FE95E8-812D-134F-BCF0-E654789DBA5C.root",
        "/store/data/Run2017E/Tau/NANOAOD/UL2017_MiniAODv2_NanoAODv9-v2/80000/D5CC784E-7CD9-454F-831E-0D5335CAC825.root",
        "/store/data/Run2017E/Tau/NANOAOD/UL2017_MiniAODv2_NanoAODv9-v2/80000/DA65BF14-4C76-9442-AC80-ECD8BDEEB080.root",
        "/store/data/Run2017E/Tau/NANOAOD/UL2017_MiniAODv2_NanoAODv9-v2/80000/DC20BC26-1F84-D340-ADA9-9BF78DAC8C31.root",
        "/store/data/Run2017E/Tau/NANOAOD/UL2017_MiniAODv2_NanoAODv9-v2/80000/DD07E085-FC0E-6248-8FEB-B291CDDCFBB1.root",
        "/store/data/Run2017E/Tau/NANOAOD/UL2017_MiniAODv2_NanoAODv9-v2/80000/E5ADCD8E-CCDF-8146-9B1F-6DAC77502B5C.root",
        "/store/data/Run2017E/Tau/NANOAOD/UL2017_MiniAODv2_NanoAODv9-v2/80000/E83FF8FF-1D5F-7F49-9C81-2F2D87E8330A.root",
        "/store/data/Run2017E/Tau/NANOAOD/UL2017_MiniAODv2_NanoAODv9-v2/80000/F8731E75-A651-744C-AB1D-9DF27679E5EC.root"
    ]
}