{
    "SingleTau_15": [
        "/store/data/Run2017F/Tau/NANOAOD/UL2017_MiniAODv2_NanoAODv9-v1/70000/D4FC8388-9EC5-9249-A4CA-0C52EEE595A3.root",
        "/store/data/Run2017F/Tau/NANOAOD/UL2017_MiniAODv2_NanoAODv9-v1/70000/D62274BB-E614-834F-B7DE-EE7869F73357.root",
        "/store/data/Run2017F/Tau/NANOAOD/UL2017_MiniAODv2_NanoAODv9-v1/70000/D66CE722-80C1-734B-8598-709A26A0AE31.root",
        "/store/data/Run2017F/Tau/NANOAOD/UL2017_MiniAODv2_NanoAODv9-v1/70000/E1FF9326-AED3-F74D-84E6-876F7898CDE4.root",
        "/store/data/Run2017F/Tau/NANOAOD/UL2017_MiniAODv2_NanoAODv9-v1/70000/EB668831-25E1-CB46-92B3-E47E6ED0A2FB.root",
        "/store/data/Run2017F/Tau/NANOAOD/UL2017_MiniAODv2_NanoAODv9-v1/70000/EB956DD2-8863-444B-9153-5DD142461F9C.root",
        "/store/data/Run2017F/Tau/NANOAOD/UL2017_MiniAODv2_NanoAODv9-v1/70000/F393F6E6-F563-1048-8E06-E5EFC6EED3ED.root",
        "/store/data/Run2017F/Tau/NANOAOD/UL2017_MiniAODv2_NanoAODv9-v1/70000/F43B2ACD-2D4B-1547-B77D-D06B52BFA472.root",
        "/store/data/Run2017F/Tau/NANOAOD/UL2017_MiniAODv2_NanoAODv9-v1/70000/F64E942A-DB45-C849-B9C4-66DFFF2CB5F6.root",
        "/store/data/Run2017F/Tau/NANOAOD/UL2017_MiniAODv2_NanoAODv9-v1/70000/F6F9E32A-39FE-4343-914A-A2B1B42664AF.root",
        "/store/data/Run2017F/Tau/NANOAOD/UL2017_MiniAODv2_NanoAODv9-v1/70000/FBE0DBB0-E265-F94F-8B6C-E48662D1017C.root",
        "/store/data/Run2017F/Tau/NANOAOD/UL2017_MiniAODv2_NanoAODv9-v1/70000/FFC8756B-D75A-3A4D-A159-8E47589F808A.root"
    ]
}