{
    "ST_s-channel_4f_leptonDecays_11": [
        "/store/mc/RunIISummer20UL17NanoAODv9/ST_s-channel_4f_leptonDecays_TuneCP5_13TeV-amcatnlo-pythia8/NANOAODSIM/106X_mc2017_realistic_v9-v1/270000/F0993CC8-2F6C-5E41-9719-1B9C31A1725C.root"
    ]
}