{
    "ST_s-channel_4f_leptonDecays_9": [
        "/store/mc/RunIISummer20UL17NanoAODv9/ST_s-channel_4f_leptonDecays_TuneCP5_13TeV-amcatnlo-pythia8/NANOAODSIM/106X_mc2017_realistic_v9-v1/130000/FC631A7B-AEE2-C747-8B8E-03F386236329.root"
    ]
}