{
    "ST_s-channel_4f_leptonDecays_13": [
        "/store/mc/RunIISummer20UL17NanoAODv9/ST_s-channel_4f_leptonDecays_TuneCP5_13TeV-amcatnlo-pythia8/NANOAODSIM/106X_mc2017_realistic_v9-v1/280000/6F22770C-6A6E-314B-B8A2-44D41F8EFD5A.root"
    ]
}