{
    "ST_s-channel_4f_leptonDecays_6": [
        "/store/mc/RunIISummer20UL17NanoAODv9/ST_s-channel_4f_leptonDecays_TuneCP5_13TeV-amcatnlo-pythia8/NANOAODSIM/106X_mc2017_realistic_v9-v1/130000/B10852A5-1CE7-094D-8C6C-4DF7ECCF1B53.root"
    ]
}