{
    "ST_tW_top_5f_inclusiveDecays_7": [
        "/store/mc/RunIISummer20UL17NanoAODv9/ST_tW_top_5f_inclusiveDecays_TuneCP5_13TeV-powheg-pythia8/NANOAODSIM/106X_mc2017_realistic_v9-v2/100000/DEEB1A7B-AB14-A44E-A24C-CFABC15DEF16.root",
        "/store/mc/RunIISummer20UL17NanoAODv9/ST_tW_top_5f_inclusiveDecays_TuneCP5_13TeV-powheg-pythia8/NANOAODSIM/106X_mc2017_realistic_v9-v2/100000/E4E8D026-64E6-7248-BF2B-30EC1C922975.root",
        "/store/mc/RunIISummer20UL17NanoAODv9/ST_tW_top_5f_inclusiveDecays_TuneCP5_13TeV-powheg-pythia8/NANOAODSIM/106X_mc2017_realistic_v9-v2/100000/EDD2213B-88EC-2446-ABE4-661C0051FECD.root"
    ]
}