{
    "ST_t-channel_antitop_5f_InclusiveDecays_13": [
        "/store/mc/RunIISummer20UL17NanoAODv9/ST_t-channel_antitop_5f_InclusiveDecays_TuneCP5_13TeV-powheg-pythia8/NANOAODSIM/106X_mc2017_realistic_v9-v2/50000/5E03081D-42D8-DB42-B22D-69D262D0DE20.root",
        "/store/mc/RunIISummer20UL17NanoAODv9/ST_t-channel_antitop_5f_InclusiveDecays_TuneCP5_13TeV-powheg-pythia8/NANOAODSIM/106X_mc2017_realistic_v9-v2/50000/72940DBC-1D1C-FA43-8AE9-208A7D2B6F04.root",
        "/store/mc/RunIISummer20UL17NanoAODv9/ST_t-channel_antitop_5f_InclusiveDecays_TuneCP5_13TeV-powheg-pythia8/NANOAODSIM/106X_mc2017_realistic_v9-v2/50000/799E58CD-612E-0046-80B0-ECEB4F9623E2.root",
        "/store/mc/RunIISummer20UL17NanoAODv9/ST_t-channel_antitop_5f_InclusiveDecays_TuneCP5_13TeV-powheg-pythia8/NANOAODSIM/106X_mc2017_realistic_v9-v2/50000/8403F75B-280A-3041-A098-CD1C53373E14.root",
        "/store/mc/RunIISummer20UL17NanoAODv9/ST_t-channel_antitop_5f_InclusiveDecays_TuneCP5_13TeV-powheg-pythia8/NANOAODSIM/106X_mc2017_realistic_v9-v2/50000/86AE6C73-AC4E-BB4D-8086-61F3F3CDCE93.root"
    ]
}