{
    "ST_tW_antitop_5f_inclusiveDecays_7": [
        "/store/mc/RunIISummer20UL17NanoAODv9/ST_tW_antitop_5f_inclusiveDecays_TuneCP5_13TeV-powheg-pythia8/NANOAODSIM/106X_mc2017_realistic_v9-v2/2430000/845AC358-D709-FD41-BBF1-926616AD91C6.root",
        "/store/mc/RunIISummer20UL17NanoAODv9/ST_tW_antitop_5f_inclusiveDecays_TuneCP5_13TeV-powheg-pythia8/NANOAODSIM/106X_mc2017_realistic_v9-v2/2430000/8C236086-429E-6949-9896-4999BD974E4B.root",
        "/store/mc/RunIISummer20UL17NanoAODv9/ST_tW_antitop_5f_inclusiveDecays_TuneCP5_13TeV-powheg-pythia8/NANOAODSIM/106X_mc2017_realistic_v9-v2/2430000/91F0CF42-7ED7-AD48-8F0F-623E5176B03A.root"
    ]
}