{
    "ST_tW_top_5f_inclusiveDecays_6": [
        "/store/mc/RunIISummer20UL17NanoAODv9/ST_tW_top_5f_inclusiveDecays_TuneCP5_13TeV-powheg-pythia8/NANOAODSIM/106X_mc2017_realistic_v9-v2/100000/B6B86247-AD62-D845-A195-2EACDBA841E3.root",
        "/store/mc/RunIISummer20UL17NanoAODv9/ST_tW_top_5f_inclusiveDecays_TuneCP5_13TeV-powheg-pythia8/NANOAODSIM/106X_mc2017_realistic_v9-v2/100000/BE35E7D4-5A19-E041-8142-D8EC088E07FF.root",
        "/store/mc/RunIISummer20UL17NanoAODv9/ST_tW_top_5f_inclusiveDecays_TuneCP5_13TeV-powheg-pythia8/NANOAODSIM/106X_mc2017_realistic_v9-v2/100000/DB387C81-6CD0-C148-963E-06046084FDCA.root"
    ]
}