{
    "ST_t-channel_top_5f_InclusiveDecays_12": [
        "/store/mc/RunIISummer20UL17NanoAODv9/ST_t-channel_top_5f_InclusiveDecays_TuneCP5_13TeV-powheg-pythia8/NANOAODSIM/106X_mc2017_realistic_v9-v1/40000/DE6A25FE-E787-A045-A85A-E3B30747B32B.root",
        "/store/mc/RunIISummer20UL17NanoAODv9/ST_t-channel_top_5f_InclusiveDecays_TuneCP5_13TeV-powheg-pythia8/NANOAODSIM/106X_mc2017_realistic_v9-v1/40000/DF4A1148-AE7B-DD46-AC8C-B8C2167A8D7A.root",
        "/store/mc/RunIISummer20UL17NanoAODv9/ST_t-channel_top_5f_InclusiveDecays_TuneCP5_13TeV-powheg-pythia8/NANOAODSIM/106X_mc2017_realistic_v9-v1/40000/E0E93A48-5103-684B-9D61-D275B64ED5EA.root",
        "/store/mc/RunIISummer20UL17NanoAODv9/ST_t-channel_top_5f_InclusiveDecays_TuneCP5_13TeV-powheg-pythia8/NANOAODSIM/106X_mc2017_realistic_v9-v1/40000/E55F957E-BC2F-BD4A-95A1-24584E8DF7CB.root",
        "/store/mc/RunIISummer20UL17NanoAODv9/ST_t-channel_top_5f_InclusiveDecays_TuneCP5_13TeV-powheg-pythia8/NANOAODSIM/106X_mc2017_realistic_v9-v1/40000/EE0982E9-1860-0E45-993D-4623FDD0AF07.root",
        "/store/mc/RunIISummer20UL17NanoAODv9/ST_t-channel_top_5f_InclusiveDecays_TuneCP5_13TeV-powheg-pythia8/NANOAODSIM/106X_mc2017_realistic_v9-v1/40000/F34CD39B-A9B2-6043-A987-681932FC03C5.root",
        "/store/mc/RunIISummer20UL17NanoAODv9/ST_t-channel_top_5f_InclusiveDecays_TuneCP5_13TeV-powheg-pythia8/NANOAODSIM/106X_mc2017_realistic_v9-v1/40000/F3AD33B0-848D-9642-A064-FD5F67F42C45.root",
        "/store/mc/RunIISummer20UL17NanoAODv9/ST_t-channel_top_5f_InclusiveDecays_TuneCP5_13TeV-powheg-pythia8/NANOAODSIM/106X_mc2017_realistic_v9-v1/40000/F7646445-B229-3E40-B2D0-9C113E5B1573.root",
        "/store/mc/RunIISummer20UL17NanoAODv9/ST_t-channel_top_5f_InclusiveDecays_TuneCP5_13TeV-powheg-pythia8/NANOAODSIM/106X_mc2017_realistic_v9-v1/40000/F9EA230F-87F0-E54B-ACFE-3914B4B5E609.root",
        "/store/mc/RunIISummer20UL17NanoAODv9/ST_t-channel_top_5f_InclusiveDecays_TuneCP5_13TeV-powheg-pythia8/NANOAODSIM/106X_mc2017_realistic_v9-v1/40000/FC3F9231-2000-E046-A948-4F79B5EC4C00.root",
        "/store/mc/RunIISummer20UL17NanoAODv9/ST_t-channel_top_5f_InclusiveDecays_TuneCP5_13TeV-powheg-pythia8/NANOAODSIM/106X_mc2017_realistic_v9-v1/40000/FC48F774-C989-B84E-A1A3-C6BE3E62623B.root",
        "/store/mc/RunIISummer20UL17NanoAODv9/ST_t-channel_top_5f_InclusiveDecays_TuneCP5_13TeV-powheg-pythia8/NANOAODSIM/106X_mc2017_realistic_v9-v1/40000/FE49C693-9A6A-7046-995A-B6F26BECEB67.root",
        "/store/mc/RunIISummer20UL17NanoAODv9/ST_t-channel_top_5f_InclusiveDecays_TuneCP5_13TeV-powheg-pythia8/NANOAODSIM/106X_mc2017_realistic_v9-v1/40000/FF10C758-9E0E-2D4D-AC5C-302F13EACC1C.root"
    ]
}