{
    "ST_t-channel_top_5f_InclusiveDecays_2": [
        "/store/mc/RunIISummer20UL17NanoAODv9/ST_t-channel_top_5f_InclusiveDecays_TuneCP5_13TeV-powheg-pythia8/NANOAODSIM/106X_mc2017_realistic_v9-v1/2430000/8866F971-B042-B449-B92C-C62929779A6F.root",
        "/store/mc/RunIISummer20UL17NanoAODv9/ST_t-channel_top_5f_InclusiveDecays_TuneCP5_13TeV-powheg-pythia8/NANOAODSIM/106X_mc2017_realistic_v9-v1/2430000/8B9CA108-8C89-A942-8739-CC0FBF406E8F.root",
        "/store/mc/RunIISummer20UL17NanoAODv9/ST_t-channel_top_5f_InclusiveDecays_TuneCP5_13TeV-powheg-pythia8/NANOAODSIM/106X_mc2017_realistic_v9-v1/2430000/8BFF2EE1-6220-0F4F-9EC4-01A0E3B4A0DD.root",
        "/store/mc/RunIISummer20UL17NanoAODv9/ST_t-channel_top_5f_InclusiveDecays_TuneCP5_13TeV-powheg-pythia8/NANOAODSIM/106X_mc2017_realistic_v9-v1/2430000/A09ABA96-1070-374A-83E5-1C67E1FD0486.root",
        "/store/mc/RunIISummer20UL17NanoAODv9/ST_t-channel_top_5f_InclusiveDecays_TuneCP5_13TeV-powheg-pythia8/NANOAODSIM/106X_mc2017_realistic_v9-v1/2430000/A0FD6BD1-A919-D044-9285-B05FF41BE2B4.root",
        "/store/mc/RunIISummer20UL17NanoAODv9/ST_t-channel_top_5f_InclusiveDecays_TuneCP5_13TeV-powheg-pythia8/NANOAODSIM/106X_mc2017_realistic_v9-v1/2430000/A183A9CF-81E4-BA43-A909-C0908BB84B4B.root",
        "/store/mc/RunIISummer20UL17NanoAODv9/ST_t-channel_top_5f_InclusiveDecays_TuneCP5_13TeV-powheg-pythia8/NANOAODSIM/106X_mc2017_realistic_v9-v1/2430000/A6F1AC8F-0F8D-F54C-B36D-B7177BC0AD2C.root",
        "/store/mc/RunIISummer20UL17NanoAODv9/ST_t-channel_top_5f_InclusiveDecays_TuneCP5_13TeV-powheg-pythia8/NANOAODSIM/106X_mc2017_realistic_v9-v1/2430000/A71387B1-7538-BC4A-A6D7-53C88EE57CE1.root",
        "/store/mc/RunIISummer20UL17NanoAODv9/ST_t-channel_top_5f_InclusiveDecays_TuneCP5_13TeV-powheg-pythia8/NANOAODSIM/106X_mc2017_realistic_v9-v1/2430000/AB50642F-E34B-9947-8B86-E6F76AFF8FC0.root",
        "/store/mc/RunIISummer20UL17NanoAODv9/ST_t-channel_top_5f_InclusiveDecays_TuneCP5_13TeV-powheg-pythia8/NANOAODSIM/106X_mc2017_realistic_v9-v1/2430000/AE353F5A-3AC1-3248-9DFB-910F0B495727.root",
        "/store/mc/RunIISummer20UL17NanoAODv9/ST_t-channel_top_5f_InclusiveDecays_TuneCP5_13TeV-powheg-pythia8/NANOAODSIM/106X_mc2017_realistic_v9-v1/2430000/AED2C0C4-9BE1-2C47-A5F8-DD2A24E02DAD.root",
        "/store/mc/RunIISummer20UL17NanoAODv9/ST_t-channel_top_5f_InclusiveDecays_TuneCP5_13TeV-powheg-pythia8/NANOAODSIM/106X_mc2017_realistic_v9-v1/2430000/B39A3D6A-73C8-FD44-A824-0F7A19C8DD05.root",
        "/store/mc/RunIISummer20UL17NanoAODv9/ST_t-channel_top_5f_InclusiveDecays_TuneCP5_13TeV-powheg-pythia8/NANOAODSIM/106X_mc2017_realistic_v9-v1/2430000/B76C3C73-BBFB-BD44-8DC4-BE004E416595.root",
        "/store/mc/RunIISummer20UL17NanoAODv9/ST_t-channel_top_5f_InclusiveDecays_TuneCP5_13TeV-powheg-pythia8/NANOAODSIM/106X_mc2017_realistic_v9-v1/2430000/BBD95BD2-A89C-D24C-A3D5-1393D1C9571C.root"
    ]
}