{
    "ST_t-channel_antitop_5f_InclusiveDecays_14": [
        "/store/mc/RunIISummer20UL17NanoAODv9/ST_t-channel_antitop_5f_InclusiveDecays_TuneCP5_13TeV-powheg-pythia8/NANOAODSIM/106X_mc2017_realistic_v9-v2/50000/A04CED5B-546E-D74B-8C54-96B13F3A16C6.root",
        "/store/mc/RunIISummer20UL17NanoAODv9/ST_t-channel_antitop_5f_InclusiveDecays_TuneCP5_13TeV-powheg-pythia8/NANOAODSIM/106X_mc2017_realistic_v9-v2/50000/A4FC1ABE-5CCB-3A4B-863E-1E247BC4732E.root",
        "/store/mc/RunIISummer20UL17NanoAODv9/ST_t-channel_antitop_5f_InclusiveDecays_TuneCP5_13TeV-powheg-pythia8/NANOAODSIM/106X_mc2017_realistic_v9-v2/50000/AB253E38-2A71-8848-8A72-B85C45D6A90A.root",
        "/store/mc/RunIISummer20UL17NanoAODv9/ST_t-channel_antitop_5f_InclusiveDecays_TuneCP5_13TeV-powheg-pythia8/NANOAODSIM/106X_mc2017_realistic_v9-v2/50000/B11B5F6B-9D89-3F46-A0A1-EC1FC6344431.root",
        "/store/mc/RunIISummer20UL17NanoAODv9/ST_t-channel_antitop_5f_InclusiveDecays_TuneCP5_13TeV-powheg-pythia8/NANOAODSIM/106X_mc2017_realistic_v9-v2/50000/BE0FB25F-551D-4D4F-A014-9A0E0F68BFC0.root"
    ]
}