{
    "ST_tW_top_5f_inclusiveDecays_13": [
        "/store/mc/RunIISummer20UL17NanoAODv9/ST_tW_top_5f_inclusiveDecays_TuneCP5_13TeV-powheg-pythia8/NANOAODSIM/106X_mc2017_realistic_v9-v2/250000/F81350CD-A737-884F-9ED6-530DE62718D3.root",
        "/store/mc/RunIISummer20UL17NanoAODv9/ST_tW_top_5f_inclusiveDecays_TuneCP5_13TeV-powheg-pythia8/NANOAODSIM/106X_mc2017_realistic_v9-v2/250000/FCA5823C-11DF-DE4F-BCAB-F80CBCB1AA98.root",
        "/store/mc/RunIISummer20UL17NanoAODv9/ST_tW_top_5f_inclusiveDecays_TuneCP5_13TeV-powheg-pythia8/NANOAODSIM/106X_mc2017_realistic_v9-v2/250000/FEB373D0-3FEA-564C-981A-D29F95C0F7E9.root"
    ]
}