{
    "ST_t-channel_top_5f_InclusiveDecays_13": [
        "/store/mc/RunIISummer20UL17NanoAODv9/ST_t-channel_top_5f_InclusiveDecays_TuneCP5_13TeV-powheg-pythia8/NANOAODSIM/106X_mc2017_realistic_v9-v1/50000/03E2B0C1-9CAB-4E4E-BAEB-4B4EF754756F.root",
        "/store/mc/RunIISummer20UL17NanoAODv9/ST_t-channel_top_5f_InclusiveDecays_TuneCP5_13TeV-powheg-pythia8/NANOAODSIM/106X_mc2017_realistic_v9-v1/50000/04A00D4E-F826-9E41-A613-ABC64534EB17.root",
        "/store/mc/RunIISummer20UL17NanoAODv9/ST_t-channel_top_5f_InclusiveDecays_TuneCP5_13TeV-powheg-pythia8/NANOAODSIM/106X_mc2017_realistic_v9-v1/50000/0C413BB9-0B4D-D443-9123-C5CE71096ABE.root",
        "/store/mc/RunIISummer20UL17NanoAODv9/ST_t-channel_top_5f_InclusiveDecays_TuneCP5_13TeV-powheg-pythia8/NANOAODSIM/106X_mc2017_realistic_v9-v1/50000/0E67ABB0-9EF7-0547-ADAC-7B951AEDE330.root",
        "/store/mc/RunIISummer20UL17NanoAODv9/ST_t-channel_top_5f_InclusiveDecays_TuneCP5_13TeV-powheg-pythia8/NANOAODSIM/106X_mc2017_realistic_v9-v1/50000/0F42B550-7C95-834C-B213-56E02F56AF77.root",
        "/store/mc/RunIISummer20UL17NanoAODv9/ST_t-channel_top_5f_InclusiveDecays_TuneCP5_13TeV-powheg-pythia8/NANOAODSIM/106X_mc2017_realistic_v9-v1/50000/1793C87F-D0BE-794D-98F5-3F28C707669F.root",
        "/store/mc/RunIISummer20UL17NanoAODv9/ST_t-channel_top_5f_InclusiveDecays_TuneCP5_13TeV-powheg-pythia8/NANOAODSIM/106X_mc2017_realistic_v9-v1/50000/20F1D08D-41E9-6D42-9B2D-EFF50872E975.root",
        "/store/mc/RunIISummer20UL17NanoAODv9/ST_t-channel_top_5f_InclusiveDecays_TuneCP5_13TeV-powheg-pythia8/NANOAODSIM/106X_mc2017_realistic_v9-v1/50000/297F98EE-2BF5-CA40-B4FA-4DDBA00A1CF5.root",
        "/store/mc/RunIISummer20UL17NanoAODv9/ST_t-channel_top_5f_InclusiveDecays_TuneCP5_13TeV-powheg-pythia8/NANOAODSIM/106X_mc2017_realistic_v9-v1/50000/2AE9D820-3E03-9E42-9D02-54098290DF44.root",
        "/store/mc/RunIISummer20UL17NanoAODv9/ST_t-channel_top_5f_InclusiveDecays_TuneCP5_13TeV-powheg-pythia8/NANOAODSIM/106X_mc2017_realistic_v9-v1/50000/2D389F58-4026-3546-AC06-E034A9B7FCA8.root",
        "/store/mc/RunIISummer20UL17NanoAODv9/ST_t-channel_top_5f_InclusiveDecays_TuneCP5_13TeV-powheg-pythia8/NANOAODSIM/106X_mc2017_realistic_v9-v1/50000/3640EAC4-F6AB-0442-93C1-4CC80C46E4E9.root",
        "/store/mc/RunIISummer20UL17NanoAODv9/ST_t-channel_top_5f_InclusiveDecays_TuneCP5_13TeV-powheg-pythia8/NANOAODSIM/106X_mc2017_realistic_v9-v1/50000/4C7524A9-C21E-D84F-A1A4-90C0DA179AF2.root",
        "/store/mc/RunIISummer20UL17NanoAODv9/ST_t-channel_top_5f_InclusiveDecays_TuneCP5_13TeV-powheg-pythia8/NANOAODSIM/106X_mc2017_realistic_v9-v1/50000/5266FACE-5A79-2549-AD31-9E467FD4AD14.root"
    ]
}