{
    "ST_tW_antitop_5f_inclusiveDecays_3": [
        "/store/mc/RunIISummer20UL17NanoAODv9/ST_tW_antitop_5f_inclusiveDecays_TuneCP5_13TeV-powheg-pythia8/NANOAODSIM/106X_mc2017_realistic_v9-v2/230000/88A545EC-C453-494C-9B37-765C29BEEF9B.root",
        "/store/mc/RunIISummer20UL17NanoAODv9/ST_tW_antitop_5f_inclusiveDecays_TuneCP5_13TeV-powheg-pythia8/NANOAODSIM/106X_mc2017_realistic_v9-v2/230000/A5A192CF-C210-4B46-85EB-D7120B90C3FD.root",
        "/store/mc/RunIISummer20UL17NanoAODv9/ST_tW_antitop_5f_inclusiveDecays_TuneCP5_13TeV-powheg-pythia8/NANOAODSIM/106X_mc2017_realistic_v9-v2/230000/BDA89CD0-3022-8340-BA31-B7F3452199BA.root",
        "/store/mc/RunIISummer20UL17NanoAODv9/ST_tW_antitop_5f_inclusiveDecays_TuneCP5_13TeV-powheg-pythia8/NANOAODSIM/106X_mc2017_realistic_v9-v2/230000/E7F98B42-40FA-DE4C-8DFD-CE1147072FE4.root"
    ]
}