{
    "ST_t-channel_antitop_5f_InclusiveDecays_11": [
        "/store/mc/RunIISummer20UL17NanoAODv9/ST_t-channel_antitop_5f_InclusiveDecays_TuneCP5_13TeV-powheg-pythia8/NANOAODSIM/106X_mc2017_realistic_v9-v2/40000/D3F1FB7A-38F3-E246-89C7-8DF199061A58.root",
        "/store/mc/RunIISummer20UL17NanoAODv9/ST_t-channel_antitop_5f_InclusiveDecays_TuneCP5_13TeV-powheg-pythia8/NANOAODSIM/106X_mc2017_realistic_v9-v2/40000/F073B8CB-9424-774A-87F7-D3C00BD95C1D.root",
        "/store/mc/RunIISummer20UL17NanoAODv9/ST_t-channel_antitop_5f_InclusiveDecays_TuneCP5_13TeV-powheg-pythia8/NANOAODSIM/106X_mc2017_realistic_v9-v2/40000/F07E2072-1EDD-E245-A94F-B374F3805730.root",
        "/store/mc/RunIISummer20UL17NanoAODv9/ST_t-channel_antitop_5f_InclusiveDecays_TuneCP5_13TeV-powheg-pythia8/NANOAODSIM/106X_mc2017_realistic_v9-v2/40000/FAA63097-44D3-CF48-89B8-CAB53839EEF1.root",
        "/store/mc/RunIISummer20UL17NanoAODv9/ST_t-channel_antitop_5f_InclusiveDecays_TuneCP5_13TeV-powheg-pythia8/NANOAODSIM/106X_mc2017_realistic_v9-v2/50000/05327F99-8FC3-944D-800D-C22A67A6E1AC.root"
    ]
}