{
    "ST_t-channel_antitop_5f_InclusiveDecays_12": [
        "/store/mc/RunIISummer20UL17NanoAODv9/ST_t-channel_antitop_5f_InclusiveDecays_TuneCP5_13TeV-powheg-pythia8/NANOAODSIM/106X_mc2017_realistic_v9-v2/50000/399D6E28-1353-AE4F-BBD1-84F5989CE325.root",
        "/store/mc/RunIISummer20UL17NanoAODv9/ST_t-channel_antitop_5f_InclusiveDecays_TuneCP5_13TeV-powheg-pythia8/NANOAODSIM/106X_mc2017_realistic_v9-v2/50000/3E1C43AD-E375-E346-AD8E-42CA35F96599.root",
        "/store/mc/RunIISummer20UL17NanoAODv9/ST_t-channel_antitop_5f_InclusiveDecays_TuneCP5_13TeV-powheg-pythia8/NANOAODSIM/106X_mc2017_realistic_v9-v2/50000/476F2F2A-D249-604A-8E6D-D128A0AAB696.root",
        "/store/mc/RunIISummer20UL17NanoAODv9/ST_t-channel_antitop_5f_InclusiveDecays_TuneCP5_13TeV-powheg-pythia8/NANOAODSIM/106X_mc2017_realistic_v9-v2/50000/550EB9C2-AFCC-7E41-898E-2A842BB5ABAE.root",
        "/store/mc/RunIISummer20UL17NanoAODv9/ST_t-channel_antitop_5f_InclusiveDecays_TuneCP5_13TeV-powheg-pythia8/NANOAODSIM/106X_mc2017_realistic_v9-v2/50000/5CD2560F-4B34-344B-A881-5F810DA0F05E.root"
    ]
}