{
    "ST_tW_antitop_5f_inclusiveDecays_4": [
        "/store/mc/RunIISummer20UL17NanoAODv9/ST_tW_antitop_5f_inclusiveDecays_TuneCP5_13TeV-powheg-pythia8/NANOAODSIM/106X_mc2017_realistic_v9-v2/2430000/0FECB999-38FB-A94F-B590-D20479D6EC14.root",
        "/store/mc/RunIISummer20UL17NanoAODv9/ST_tW_antitop_5f_inclusiveDecays_TuneCP5_13TeV-powheg-pythia8/NANOAODSIM/106X_mc2017_realistic_v9-v2/2430000/1AA7F5C5-87FE-5748-B1A8-3D78E271B225.root",
        "/store/mc/RunIISummer20UL17NanoAODv9/ST_tW_antitop_5f_inclusiveDecays_TuneCP5_13TeV-powheg-pythia8/NANOAODSIM/106X_mc2017_realistic_v9-v2/2430000/219C95E5-6AAB-4C48-8068-F2A8311BA2B3.root"
    ]
}