{
    "ST_t-channel_top_5f_InclusiveDecays_10": [
        "/store/mc/RunIISummer20UL17NanoAODv9/ST_t-channel_top_5f_InclusiveDecays_TuneCP5_13TeV-powheg-pythia8/NANOAODSIM/106X_mc2017_realistic_v9-v1/40000/9A621E1F-2B7C-874D-8766-93B85BF19D31.root",
        "/store/mc/RunIISummer20UL17NanoAODv9/ST_t-channel_top_5f_InclusiveDecays_TuneCP5_13TeV-powheg-pythia8/NANOAODSIM/106X_mc2017_realistic_v9-v1/40000/9CF09B86-184E-D64B-9269-0F6C59294814.root",
        "/store/mc/RunIISummer20UL17NanoAODv9/ST_t-channel_top_5f_InclusiveDecays_TuneCP5_13TeV-powheg-pythia8/NANOAODSIM/106X_mc2017_realistic_v9-v1/40000/9ECE5B7F-F9EA-EE49-A170-6CB03F81B2D7.root",
        "/store/mc/RunIISummer20UL17NanoAODv9/ST_t-channel_top_5f_InclusiveDecays_TuneCP5_13TeV-powheg-pythia8/NANOAODSIM/106X_mc2017_realistic_v9-v1/40000/9FA38E71-3E36-2C4C-92AE-EC4BEBB5138E.root",
        "/store/mc/RunIISummer20UL17NanoAODv9/ST_t-channel_top_5f_InclusiveDecays_TuneCP5_13TeV-powheg-pythia8/NANOAODSIM/106X_mc2017_realistic_v9-v1/40000/9FEE5227-1F62-E74C-ABC7-A012E63820AA.root",
        "/store/mc/RunIISummer20UL17NanoAODv9/ST_t-channel_top_5f_InclusiveDecays_TuneCP5_13TeV-powheg-pythia8/NANOAODSIM/106X_mc2017_realistic_v9-v1/40000/A0735A12-D611-5D4E-8D41-57722F8D7EAB.root",
        "/store/mc/RunIISummer20UL17NanoAODv9/ST_t-channel_top_5f_InclusiveDecays_TuneCP5_13TeV-powheg-pythia8/NANOAODSIM/106X_mc2017_realistic_v9-v1/40000/A860BAD8-2A5B-084D-876D-960A1140F22C.root",
        "/store/mc/RunIISummer20UL17NanoAODv9/ST_t-channel_top_5f_InclusiveDecays_TuneCP5_13TeV-powheg-pythia8/NANOAODSIM/106X_mc2017_realistic_v9-v1/40000/AA685585-CC77-A444-8EAF-C53290B08DEE.root",
        "/store/mc/RunIISummer20UL17NanoAODv9/ST_t-channel_top_5f_InclusiveDecays_TuneCP5_13TeV-powheg-pythia8/NANOAODSIM/106X_mc2017_realistic_v9-v1/40000/AC489FEE-25BC-0146-985E-F1EDE55FBEBE.root",
        "/store/mc/RunIISummer20UL17NanoAODv9/ST_t-channel_top_5f_InclusiveDecays_TuneCP5_13TeV-powheg-pythia8/NANOAODSIM/106X_mc2017_realistic_v9-v1/40000/AC7BA57F-5232-6A4A-B3FA-6FD1A34F8DC5.root",
        "/store/mc/RunIISummer20UL17NanoAODv9/ST_t-channel_top_5f_InclusiveDecays_TuneCP5_13TeV-powheg-pythia8/NANOAODSIM/106X_mc2017_realistic_v9-v1/40000/ACC3E672-CDE1-0E4B-A050-C31FF1ADB27E.root",
        "/store/mc/RunIISummer20UL17NanoAODv9/ST_t-channel_top_5f_InclusiveDecays_TuneCP5_13TeV-powheg-pythia8/NANOAODSIM/106X_mc2017_realistic_v9-v1/40000/AE907467-6981-1745-866C-27126DA42299.root",
        "/store/mc/RunIISummer20UL17NanoAODv9/ST_t-channel_top_5f_InclusiveDecays_TuneCP5_13TeV-powheg-pythia8/NANOAODSIM/106X_mc2017_realistic_v9-v1/40000/AFBA6999-10A6-954D-8CBD-BC9067DBADE2.root"
    ]
}