{
    "ST_tW_top_5f_inclusiveDecays_14": [
        "/store/mc/RunIISummer20UL17NanoAODv9/ST_tW_top_5f_inclusiveDecays_TuneCP5_13TeV-powheg-pythia8/NANOAODSIM/106X_mc2017_realistic_v9-v2/260000/375FDAF8-92F6-8046-9159-5040055F7708.root",
        "/store/mc/RunIISummer20UL17NanoAODv9/ST_tW_top_5f_inclusiveDecays_TuneCP5_13TeV-powheg-pythia8/NANOAODSIM/106X_mc2017_realistic_v9-v2/260000/9BC260F8-1109-3C48-A3A3-2E1F050049A2.root"
    ]
}