{
    "ST_t-channel_antitop_5f_InclusiveDecays_6": [
        "/store/mc/RunIISummer20UL17NanoAODv9/ST_t-channel_antitop_5f_InclusiveDecays_TuneCP5_13TeV-powheg-pythia8/NANOAODSIM/106X_mc2017_realistic_v9-v2/2520000/FE2F61B9-C833-3841-83A6-DF5C3DFE58A5.root",
        "/store/mc/RunIISummer20UL17NanoAODv9/ST_t-channel_antitop_5f_InclusiveDecays_TuneCP5_13TeV-powheg-pythia8/NANOAODSIM/106X_mc2017_realistic_v9-v2/2520000/FEBC4E7F-65E4-E943-949B-38A2F8FF6A79.root",
        "/store/mc/RunIISummer20UL17NanoAODv9/ST_t-channel_antitop_5f_InclusiveDecays_TuneCP5_13TeV-powheg-pythia8/NANOAODSIM/106X_mc2017_realistic_v9-v2/2520000/FFC2DBD5-A777-054E-9EDF-3824695DF658.root",
        "/store/mc/RunIISummer20UL17NanoAODv9/ST_t-channel_antitop_5f_InclusiveDecays_TuneCP5_13TeV-powheg-pythia8/NANOAODSIM/106X_mc2017_realistic_v9-v2/2530000/059B9D15-7B50-7942-BD9D-96E3BDBE480C.root",
        "/store/mc/RunIISummer20UL17NanoAODv9/ST_t-channel_antitop_5f_InclusiveDecays_TuneCP5_13TeV-powheg-pythia8/NANOAODSIM/106X_mc2017_realistic_v9-v2/2530000/214E48B6-7F7B-BB44-8542-8DE17FE41A06.root",
        "/store/mc/RunIISummer20UL17NanoAODv9/ST_t-channel_antitop_5f_InclusiveDecays_TuneCP5_13TeV-powheg-pythia8/NANOAODSIM/106X_mc2017_realistic_v9-v2/2530000/2C56759C-D05F-6243-943B-CA45FD132B32.root"
    ]
}