{
    "ST_t-channel_top_5f_InclusiveDecays_1": [
        "/store/mc/RunIISummer20UL17NanoAODv9/ST_t-channel_top_5f_InclusiveDecays_TuneCP5_13TeV-powheg-pythia8/NANOAODSIM/106X_mc2017_realistic_v9-v1/2430000/0423FB29-5F4D-4C43-9D84-C19A3192BB60.root",
        "/store/mc/RunIISummer20UL17NanoAODv9/ST_t-channel_top_5f_InclusiveDecays_TuneCP5_13TeV-powheg-pythia8/NANOAODSIM/106X_mc2017_realistic_v9-v1/2430000/0D7A263F-6540-D048-A7F6-2A7010FEE8DC.root",
        "/store/mc/RunIISummer20UL17NanoAODv9/ST_t-channel_top_5f_InclusiveDecays_TuneCP5_13TeV-powheg-pythia8/NANOAODSIM/106X_mc2017_realistic_v9-v1/2430000/1DA07459-2ECC-1248-84E4-2AA89A516DAC.root",
        "/store/mc/RunIISummer20UL17NanoAODv9/ST_t-channel_top_5f_InclusiveDecays_TuneCP5_13TeV-powheg-pythia8/NANOAODSIM/106X_mc2017_realistic_v9-v1/2430000/237EFD49-455C-4E47-A3BF-086CD7193403.root",
        "/store/mc/RunIISummer20UL17NanoAODv9/ST_t-channel_top_5f_InclusiveDecays_TuneCP5_13TeV-powheg-pythia8/NANOAODSIM/106X_mc2017_realistic_v9-v1/2430000/2C4DE060-D754-9B4A-9780-7BAD6F294D33.root",
        "/store/mc/RunIISummer20UL17NanoAODv9/ST_t-channel_top_5f_InclusiveDecays_TuneCP5_13TeV-powheg-pythia8/NANOAODSIM/106X_mc2017_realistic_v9-v1/2430000/3133C607-53ED-DB4A-A617-E95504733989.root",
        "/store/mc/RunIISummer20UL17NanoAODv9/ST_t-channel_top_5f_InclusiveDecays_TuneCP5_13TeV-powheg-pythia8/NANOAODSIM/106X_mc2017_realistic_v9-v1/2430000/4DD080C7-D459-EE42-A5B2-EC07A95488A1.root",
        "/store/mc/RunIISummer20UL17NanoAODv9/ST_t-channel_top_5f_InclusiveDecays_TuneCP5_13TeV-powheg-pythia8/NANOAODSIM/106X_mc2017_realistic_v9-v1/2430000/548D189B-8ACA-8C4E-AB5A-87DD65CEA7CC.root",
        "/store/mc/RunIISummer20UL17NanoAODv9/ST_t-channel_top_5f_InclusiveDecays_TuneCP5_13TeV-powheg-pythia8/NANOAODSIM/106X_mc2017_realistic_v9-v1/2430000/5666E1F6-6D9A-9E4B-A1FE-48C31B56C1B3.root",
        "/store/mc/RunIISummer20UL17NanoAODv9/ST_t-channel_top_5f_InclusiveDecays_TuneCP5_13TeV-powheg-pythia8/NANOAODSIM/106X_mc2017_realistic_v9-v1/2430000/589CC668-5B6C-C048-871C-BC352D149CAF.root",
        "/store/mc/RunIISummer20UL17NanoAODv9/ST_t-channel_top_5f_InclusiveDecays_TuneCP5_13TeV-powheg-pythia8/NANOAODSIM/106X_mc2017_realistic_v9-v1/2430000/694AB0A8-B189-7344-9130-CD54C3BBCD1A.root",
        "/store/mc/RunIISummer20UL17NanoAODv9/ST_t-channel_top_5f_InclusiveDecays_TuneCP5_13TeV-powheg-pythia8/NANOAODSIM/106X_mc2017_realistic_v9-v1/2430000/6E384B13-CB44-F048-B5EA-BCA644CB378C.root",
        "/store/mc/RunIISummer20UL17NanoAODv9/ST_t-channel_top_5f_InclusiveDecays_TuneCP5_13TeV-powheg-pythia8/NANOAODSIM/106X_mc2017_realistic_v9-v1/2430000/7F5ECE77-D95F-C34C-8DEF-723E2832898A.root",
        "/store/mc/RunIISummer20UL17NanoAODv9/ST_t-channel_top_5f_InclusiveDecays_TuneCP5_13TeV-powheg-pythia8/NANOAODSIM/106X_mc2017_realistic_v9-v1/2430000/882020CF-123B-8B48-90D2-B81F6B0D75D6.root"
    ]
}