{
    "TTToHadronic_3": [
        "/store/mc/RunIISummer20UL17NanoAODv9/TTToHadronic_TuneCP5_13TeV-powheg-pythia8/NANOAODSIM/106X_mc2017_realistic_v9-v1/80000/26ADDAEA-D57A-244D-A2B1-06D0AAA8EE83.root",
        "/store/mc/RunIISummer20UL17NanoAODv9/TTToHadronic_TuneCP5_13TeV-powheg-pythia8/NANOAODSIM/106X_mc2017_realistic_v9-v1/80000/27ED0160-4506-3040-9105-B90AAC5CFB3C.root",
        "/store/mc/RunIISummer20UL17NanoAODv9/TTToHadronic_TuneCP5_13TeV-powheg-pythia8/NANOAODSIM/106X_mc2017_realistic_v9-v1/80000/28190084-3A34-9B4B-A76B-B3DB90CD5F3D.root",
        "/store/mc/RunIISummer20UL17NanoAODv9/TTToHadronic_TuneCP5_13TeV-powheg-pythia8/NANOAODSIM/106X_mc2017_realistic_v9-v1/80000/2B67F220-AD68-0F44-BBE9-6669D8636789.root",
        "/store/mc/RunIISummer20UL17NanoAODv9/TTToHadronic_TuneCP5_13TeV-powheg-pythia8/NANOAODSIM/106X_mc2017_realistic_v9-v1/80000/2BD7DF3F-E939-1D4F-A606-E368BCB2B1E0.root",
        "/store/mc/RunIISummer20UL17NanoAODv9/TTToHadronic_TuneCP5_13TeV-powheg-pythia8/NANOAODSIM/106X_mc2017_realistic_v9-v1/80000/2C55586E-2978-CE4C-9A2B-C59FE53D7362.root",
        "/store/mc/RunIISummer20UL17NanoAODv9/TTToHadronic_TuneCP5_13TeV-powheg-pythia8/NANOAODSIM/106X_mc2017_realistic_v9-v1/80000/2D2262D7-88F8-9047-B812-EFE3BA8AAB22.root",
        "/store/mc/RunIISummer20UL17NanoAODv9/TTToHadronic_TuneCP5_13TeV-powheg-pythia8/NANOAODSIM/106X_mc2017_realistic_v9-v1/80000/2F9BFE0C-45CD-CA4A-B850-6D432D7D3B04.root",
        "/store/mc/RunIISummer20UL17NanoAODv9/TTToHadronic_TuneCP5_13TeV-powheg-pythia8/NANOAODSIM/106X_mc2017_realistic_v9-v1/80000/31746555-E0A3-324F-8F11-2E55ED72B119.root",
        "/store/mc/RunIISummer20UL17NanoAODv9/TTToHadronic_TuneCP5_13TeV-powheg-pythia8/NANOAODSIM/106X_mc2017_realistic_v9-v1/80000/328C71FF-2D55-0E4B-A217-1D73105311A2.root",
        "/store/mc/RunIISummer20UL17NanoAODv9/TTToHadronic_TuneCP5_13TeV-powheg-pythia8/NANOAODSIM/106X_mc2017_realistic_v9-v1/80000/32C5BF6B-E52E-0E45-A4BE-55B4635E3F18.root",
        "/store/mc/RunIISummer20UL17NanoAODv9/TTToHadronic_TuneCP5_13TeV-powheg-pythia8/NANOAODSIM/106X_mc2017_realistic_v9-v1/80000/33E5A75E-744B-6147-9315-DF9798882D14.root",
        "/store/mc/RunIISummer20UL17NanoAODv9/TTToHadronic_TuneCP5_13TeV-powheg-pythia8/NANOAODSIM/106X_mc2017_realistic_v9-v1/80000/33F20882-B7AA-B24A-AE58-11C921DED632.root",
        "/store/mc/RunIISummer20UL17NanoAODv9/TTToHadronic_TuneCP5_13TeV-powheg-pythia8/NANOAODSIM/106X_mc2017_realistic_v9-v1/80000/33FE9D3F-64C7-5E48-A823-67DEF77DFBA8.root"
    ]
}