{
    "TTToSemiLeptonic_13": [
        "/store/mc/RunIISummer20UL17NanoAODv9/TTToSemiLeptonic_TuneCP5_13TeV-powheg-pythia8/NANOAODSIM/106X_mc2017_realistic_v9-v1/280000/BBC7E603-6B04-DD4F-B5D5-9286BB27E7B7.root",
        "/store/mc/RunIISummer20UL17NanoAODv9/TTToSemiLeptonic_TuneCP5_13TeV-powheg-pythia8/NANOAODSIM/106X_mc2017_realistic_v9-v1/280000/BD98726D-4F5D-8B4F-9A02-50E576A5E86D.root",
        "/store/mc/RunIISummer20UL17NanoAODv9/TTToSemiLeptonic_TuneCP5_13TeV-powheg-pythia8/NANOAODSIM/106X_mc2017_realistic_v9-v1/280000/BDE2C597-80A1-904D-9DB6-41A4BA8A6758.root",
        "/store/mc/RunIISummer20UL17NanoAODv9/TTToSemiLeptonic_TuneCP5_13TeV-powheg-pythia8/NANOAODSIM/106X_mc2017_realistic_v9-v1/280000/BE1F91B1-EB49-4949-A728-F165D1FFEEA6.root",
        "/store/mc/RunIISummer20UL17NanoAODv9/TTToSemiLeptonic_TuneCP5_13TeV-powheg-pythia8/NANOAODSIM/106X_mc2017_realistic_v9-v1/280000/BFB208D8-EB28-384F-8CCB-352D4F42459F.root",
        "/store/mc/RunIISummer20UL17NanoAODv9/TTToSemiLeptonic_TuneCP5_13TeV-powheg-pythia8/NANOAODSIM/106X_mc2017_realistic_v9-v1/280000/BFD25B22-4164-4D4F-99CE-DD7E75E6874E.root",
        "/store/mc/RunIISummer20UL17NanoAODv9/TTToSemiLeptonic_TuneCP5_13TeV-powheg-pythia8/NANOAODSIM/106X_mc2017_realistic_v9-v1/280000/BFDD9898-F533-6C43-B134-48A31BBEF6C9.root",
        "/store/mc/RunIISummer20UL17NanoAODv9/TTToSemiLeptonic_TuneCP5_13TeV-powheg-pythia8/NANOAODSIM/106X_mc2017_realistic_v9-v1/280000/C2A49BAC-F873-0245-94AA-DF4A04B47944.root",
        "/store/mc/RunIISummer20UL17NanoAODv9/TTToSemiLeptonic_TuneCP5_13TeV-powheg-pythia8/NANOAODSIM/106X_mc2017_realistic_v9-v1/280000/C3F3C68A-F81B-5547-9F01-EB6931F729B6.root",
        "/store/mc/RunIISummer20UL17NanoAODv9/TTToSemiLeptonic_TuneCP5_13TeV-powheg-pythia8/NANOAODSIM/106X_mc2017_realistic_v9-v1/280000/C47B8B2F-9016-DC40-814E-9F4FE12032F2.root",
        "/store/mc/RunIISummer20UL17NanoAODv9/TTToSemiLeptonic_TuneCP5_13TeV-powheg-pythia8/NANOAODSIM/106X_mc2017_realistic_v9-v1/280000/C552B9EF-E719-0F40-93E5-2A7FDFBE2BEC.root",
        "/store/mc/RunIISummer20UL17NanoAODv9/TTToSemiLeptonic_TuneCP5_13TeV-powheg-pythia8/NANOAODSIM/106X_mc2017_realistic_v9-v1/280000/C555C62F-7080-5F47-871B-1F24824DBB27.root",
        "/store/mc/RunIISummer20UL17NanoAODv9/TTToSemiLeptonic_TuneCP5_13TeV-powheg-pythia8/NANOAODSIM/106X_mc2017_realistic_v9-v1/280000/C5D6F17C-652E-C840-8623-3C55ECC8D1C4.root",
        "/store/mc/RunIISummer20UL17NanoAODv9/TTToSemiLeptonic_TuneCP5_13TeV-powheg-pythia8/NANOAODSIM/106X_mc2017_realistic_v9-v1/280000/C75EA326-FE74-CA42-95A5-5B175D83727A.root",
        "/store/mc/RunIISummer20UL17NanoAODv9/TTToSemiLeptonic_TuneCP5_13TeV-powheg-pythia8/NANOAODSIM/106X_mc2017_realistic_v9-v1/280000/CA0F49A7-7477-2B4C-8EE7-C04611763634.root",
        "/store/mc/RunIISummer20UL17NanoAODv9/TTToSemiLeptonic_TuneCP5_13TeV-powheg-pythia8/NANOAODSIM/106X_mc2017_realistic_v9-v1/280000/CB2858CF-CC23-1140-A88D-E7E679E43A93.root",
        "/store/mc/RunIISummer20UL17NanoAODv9/TTToSemiLeptonic_TuneCP5_13TeV-powheg-pythia8/NANOAODSIM/106X_mc2017_realistic_v9-v1/280000/CC7BA9EE-64B5-2846-9DE2-7421642989A3.root",
        "/store/mc/RunIISummer20UL17NanoAODv9/TTToSemiLeptonic_TuneCP5_13TeV-powheg-pythia8/NANOAODSIM/106X_mc2017_realistic_v9-v1/280000/CDC894C6-6BE6-BF4B-B2C5-C9C82D1F6E4A.root",
        "/store/mc/RunIISummer20UL17NanoAODv9/TTToSemiLeptonic_TuneCP5_13TeV-powheg-pythia8/NANOAODSIM/106X_mc2017_realistic_v9-v1/280000/CDE6AA30-7DA9-2C45-9A4C-8DD1CCC14DC6.root"
    ]
}