{
    "TTToHadronic_8": [
        "/store/mc/RunIISummer20UL17NanoAODv9/TTToHadronic_TuneCP5_13TeV-powheg-pythia8/NANOAODSIM/106X_mc2017_realistic_v9-v1/80000/71179B1B-BC31-444E-8F2B-41770286089F.root",
        "/store/mc/RunIISummer20UL17NanoAODv9/TTToHadronic_TuneCP5_13TeV-powheg-pythia8/NANOAODSIM/106X_mc2017_realistic_v9-v1/80000/71DB0172-0A65-8C43-BE1B-1E95F632DBB4.root",
        "/store/mc/RunIISummer20UL17NanoAODv9/TTToHadronic_TuneCP5_13TeV-powheg-pythia8/NANOAODSIM/106X_mc2017_realistic_v9-v1/80000/743DAA2C-9E22-504D-B491-11EF918A75C4.root",
        "/store/mc/RunIISummer20UL17NanoAODv9/TTToHadronic_TuneCP5_13TeV-powheg-pythia8/NANOAODSIM/106X_mc2017_realistic_v9-v1/80000/7522141E-1D78-DB40-B0AC-D68F39C04AE0.root",
        "/store/mc/RunIISummer20UL17NanoAODv9/TTToHadronic_TuneCP5_13TeV-powheg-pythia8/NANOAODSIM/106X_mc2017_realistic_v9-v1/80000/7A3073CE-156E-3E45-A7B4-06FB8FB4DF13.root",
        "/store/mc/RunIISummer20UL17NanoAODv9/TTToHadronic_TuneCP5_13TeV-powheg-pythia8/NANOAODSIM/106X_mc2017_realistic_v9-v1/80000/7AA798CA-0AAA-D843-88BE-1D99ADBF9C90.root",
        "/store/mc/RunIISummer20UL17NanoAODv9/TTToHadronic_TuneCP5_13TeV-powheg-pythia8/NANOAODSIM/106X_mc2017_realistic_v9-v1/80000/7E194EF8-333F-6845-AFCA-49702CC6D2AE.root",
        "/store/mc/RunIISummer20UL17NanoAODv9/TTToHadronic_TuneCP5_13TeV-powheg-pythia8/NANOAODSIM/106X_mc2017_realistic_v9-v1/80000/7EACBC95-5515-D24F-9C05-6318FD52F5E5.root",
        "/store/mc/RunIISummer20UL17NanoAODv9/TTToHadronic_TuneCP5_13TeV-powheg-pythia8/NANOAODSIM/106X_mc2017_realistic_v9-v1/80000/80B3A893-B0EE-A045-BAA7-13FE454FBC15.root",
        "/store/mc/RunIISummer20UL17NanoAODv9/TTToHadronic_TuneCP5_13TeV-powheg-pythia8/NANOAODSIM/106X_mc2017_realistic_v9-v1/80000/8247DC06-FC7D-C149-AF31-76713F2DED1E.root",
        "/store/mc/RunIISummer20UL17NanoAODv9/TTToHadronic_TuneCP5_13TeV-powheg-pythia8/NANOAODSIM/106X_mc2017_realistic_v9-v1/80000/826BC19B-AB80-7A48-8D42-F24F2DD36329.root",
        "/store/mc/RunIISummer20UL17NanoAODv9/TTToHadronic_TuneCP5_13TeV-powheg-pythia8/NANOAODSIM/106X_mc2017_realistic_v9-v1/80000/830B4ABA-EB79-B242-8AA8-A83073B5F1E8.root",
        "/store/mc/RunIISummer20UL17NanoAODv9/TTToHadronic_TuneCP5_13TeV-powheg-pythia8/NANOAODSIM/106X_mc2017_realistic_v9-v1/80000/840E2959-3EF0-834E-A09B-80A85BC65D88.root"
    ]
}