{
    "TTTo2L2Nu_6": [
        "/store/mc/RunIISummer20UL17NanoAODv9/TTTo2L2Nu_TuneCP5_13TeV-powheg-pythia8/NANOAODSIM/106X_mc2017_realistic_v9-v1/2510000/60F46F09-86AE-B541-8A5A-DEB0A29A8D50.root",
        "/store/mc/RunIISummer20UL17NanoAODv9/TTTo2L2Nu_TuneCP5_13TeV-powheg-pythia8/NANOAODSIM/106X_mc2017_realistic_v9-v1/2510000/69AEE8E9-76E4-C54C-BE33-ED74471E6143.root",
        "/store/mc/RunIISummer20UL17NanoAODv9/TTTo2L2Nu_TuneCP5_13TeV-powheg-pythia8/NANOAODSIM/106X_mc2017_realistic_v9-v1/2510000/6C0AAC46-7607-1F4E-8F69-7632068C6F23.root",
        "/store/mc/RunIISummer20UL17NanoAODv9/TTTo2L2Nu_TuneCP5_13TeV-powheg-pythia8/NANOAODSIM/106X_mc2017_realistic_v9-v1/2510000/6F596986-55FA-3B4D-A59E-F1784C86E33A.root",
        "/store/mc/RunIISummer20UL17NanoAODv9/TTTo2L2Nu_TuneCP5_13TeV-powheg-pythia8/NANOAODSIM/106X_mc2017_realistic_v9-v1/2510000/72DE1A8F-B8E6-9C4E-A073-02C6036C7B00.root",
        "/store/mc/RunIISummer20UL17NanoAODv9/TTTo2L2Nu_TuneCP5_13TeV-powheg-pythia8/NANOAODSIM/106X_mc2017_realistic_v9-v1/2510000/74AEE4CE-B242-4242-9AD9-382EEEFB223C.root",
        "/store/mc/RunIISummer20UL17NanoAODv9/TTTo2L2Nu_TuneCP5_13TeV-powheg-pythia8/NANOAODSIM/106X_mc2017_realistic_v9-v1/2510000/74C36AED-4CB9-1A4D-A9E6-90278C68131C.root"
    ]
}