{
    "TTToHadronic_7": [
        "/store/mc/RunIISummer20UL17NanoAODv9/TTToHadronic_TuneCP5_13TeV-powheg-pythia8/NANOAODSIM/106X_mc2017_realistic_v9-v1/80000/612559A9-F20A-AB4C-A3F0-6275B46BE4BE.root",
        "/store/mc/RunIISummer20UL17NanoAODv9/TTToHadronic_TuneCP5_13TeV-powheg-pythia8/NANOAODSIM/106X_mc2017_realistic_v9-v1/80000/65A6EE50-CFF0-2348-ADB1-E4E5DF50963B.root",
        "/store/mc/RunIISummer20UL17NanoAODv9/TTToHadronic_TuneCP5_13TeV-powheg-pythia8/NANOAODSIM/106X_mc2017_realistic_v9-v1/80000/68A78A25-C9CC-674B-840E-706A67095F4B.root",
        "/store/mc/RunIISummer20UL17NanoAODv9/TTToHadronic_TuneCP5_13TeV-powheg-pythia8/NANOAODSIM/106X_mc2017_realistic_v9-v1/80000/699B8589-03AF-AD44-B027-41087BAB44C1.root",
        "/store/mc/RunIISummer20UL17NanoAODv9/TTToHadronic_TuneCP5_13TeV-powheg-pythia8/NANOAODSIM/106X_mc2017_realistic_v9-v1/80000/699F4182-B7B0-9243-A403-10281B8F9A3E.root",
        "/store/mc/RunIISummer20UL17NanoAODv9/TTToHadronic_TuneCP5_13TeV-powheg-pythia8/NANOAODSIM/106X_mc2017_realistic_v9-v1/80000/6AF8CC07-1A52-2240-A441-32633E0DE7E1.root",
        "/store/mc/RunIISummer20UL17NanoAODv9/TTToHadronic_TuneCP5_13TeV-powheg-pythia8/NANOAODSIM/106X_mc2017_realistic_v9-v1/80000/6B050510-4AA7-AB40-9C65-89FF08572E67.root",
        "/store/mc/RunIISummer20UL17NanoAODv9/TTToHadronic_TuneCP5_13TeV-powheg-pythia8/NANOAODSIM/106X_mc2017_realistic_v9-v1/80000/6B68548C-A8C9-7549-89FA-E9A15C6F0A2D.root",
        "/store/mc/RunIISummer20UL17NanoAODv9/TTToHadronic_TuneCP5_13TeV-powheg-pythia8/NANOAODSIM/106X_mc2017_realistic_v9-v1/80000/6BDE7188-96AB-E741-BEBC-9F35F87C75B2.root",
        "/store/mc/RunIISummer20UL17NanoAODv9/TTToHadronic_TuneCP5_13TeV-powheg-pythia8/NANOAODSIM/106X_mc2017_realistic_v9-v1/80000/6C5ECC1E-54C9-704E-AA09-9D2C6FF7AA3D.root",
        "/store/mc/RunIISummer20UL17NanoAODv9/TTToHadronic_TuneCP5_13TeV-powheg-pythia8/NANOAODSIM/106X_mc2017_realistic_v9-v1/80000/6D69DC46-844B-434F-939B-121E73D57468.root",
        "/store/mc/RunIISummer20UL17NanoAODv9/TTToHadronic_TuneCP5_13TeV-powheg-pythia8/NANOAODSIM/106X_mc2017_realistic_v9-v1/80000/70144AC6-4856-F747-AB7F-8A95896D0D05.root",
        "/store/mc/RunIISummer20UL17NanoAODv9/TTToHadronic_TuneCP5_13TeV-powheg-pythia8/NANOAODSIM/106X_mc2017_realistic_v9-v1/80000/70AD97BF-68B1-4948-9D53-8BB1C5A86361.root"
    ]
}