{
    "TTTo2L2Nu_13": [
        "/store/mc/RunIISummer20UL17NanoAODv9/TTTo2L2Nu_TuneCP5_13TeV-powheg-pythia8/NANOAODSIM/106X_mc2017_realistic_v9-v1/2510000/E20B15CA-EE5D-9140-A72D-66A3E861F364.root",
        "/store/mc/RunIISummer20UL17NanoAODv9/TTTo2L2Nu_TuneCP5_13TeV-powheg-pythia8/NANOAODSIM/106X_mc2017_realistic_v9-v1/2510000/E3B4030D-5D60-034B-ABE1-447CEA9E5765.root",
        "/store/mc/RunIISummer20UL17NanoAODv9/TTTo2L2Nu_TuneCP5_13TeV-powheg-pythia8/NANOAODSIM/106X_mc2017_realistic_v9-v1/2510000/E4F824A3-3F8C-564F-9AF4-6556DF7D3CC9.root",
        "/store/mc/RunIISummer20UL17NanoAODv9/TTTo2L2Nu_TuneCP5_13TeV-powheg-pythia8/NANOAODSIM/106X_mc2017_realistic_v9-v1/2510000/E51E35AD-594B-404F-9BE4-AB42DE6EAF35.root",
        "/store/mc/RunIISummer20UL17NanoAODv9/TTTo2L2Nu_TuneCP5_13TeV-powheg-pythia8/NANOAODSIM/106X_mc2017_realistic_v9-v1/2510000/E587EB20-E717-0448-A9FF-229F12353B8C.root",
        "/store/mc/RunIISummer20UL17NanoAODv9/TTTo2L2Nu_TuneCP5_13TeV-powheg-pythia8/NANOAODSIM/106X_mc2017_realistic_v9-v1/2510000/E7185D42-E19B-4743-B5D2-2D2A008AB656.root"
    ]
}