{
    "TTToSemiLeptonic_12": [
        "/store/mc/RunIISummer20UL17NanoAODv9/TTToSemiLeptonic_TuneCP5_13TeV-powheg-pythia8/NANOAODSIM/106X_mc2017_realistic_v9-v1/280000/AA818FBF-A339-E24C-B26A-E8FED00AD96D.root",
        "/store/mc/RunIISummer20UL17NanoAODv9/TTToSemiLeptonic_TuneCP5_13TeV-powheg-pythia8/NANOAODSIM/106X_mc2017_realistic_v9-v1/280000/AB3382C2-FAC9-7F42-9DA6-7B977A58DC12.root",
        "/store/mc/RunIISummer20UL17NanoAODv9/TTToSemiLeptonic_TuneCP5_13TeV-powheg-pythia8/NANOAODSIM/106X_mc2017_realistic_v9-v1/280000/AB7EE379-DE7E-0F45-8AD1-9AAAF1C94250.root",
        "/store/mc/RunIISummer20UL17NanoAODv9/TTToSemiLeptonic_TuneCP5_13TeV-powheg-pythia8/NANOAODSIM/106X_mc2017_realistic_v9-v1/280000/AC04B64B-D618-BC47-93B4-8D4D10293469.root",
        "/store/mc/RunIISummer20UL17NanoAODv9/TTToSemiLeptonic_TuneCP5_13TeV-powheg-pythia8/NANOAODSIM/106X_mc2017_realistic_v9-v1/280000/AC357503-8E32-0445-89E6-D3BD6BB1B5DC.root",
        "/store/mc/RunIISummer20UL17NanoAODv9/TTToSemiLeptonic_TuneCP5_13TeV-powheg-pythia8/NANOAODSIM/106X_mc2017_realistic_v9-v1/280000/AC72CB41-8C71-3741-9084-ADDA31F63DAC.root",
        "/store/mc/RunIISummer20UL17NanoAODv9/TTToSemiLeptonic_TuneCP5_13TeV-powheg-pythia8/NANOAODSIM/106X_mc2017_realistic_v9-v1/280000/ACE05B03-0A18-8645-BEE7-08E051EDFB4E.root",
        "/store/mc/RunIISummer20UL17NanoAODv9/TTToSemiLeptonic_TuneCP5_13TeV-powheg-pythia8/NANOAODSIM/106X_mc2017_realistic_v9-v1/280000/AE6586FA-C0CB-354E-BFEE-1896014215D8.root",
        "/store/mc/RunIISummer20UL17NanoAODv9/TTToSemiLeptonic_TuneCP5_13TeV-powheg-pythia8/NANOAODSIM/106X_mc2017_realistic_v9-v1/280000/AF0A410D-4715-5C4B-8F62-43B10027C616.root",
        "/store/mc/RunIISummer20UL17NanoAODv9/TTToSemiLeptonic_TuneCP5_13TeV-powheg-pythia8/NANOAODSIM/106X_mc2017_realistic_v9-v1/280000/B0475752-B699-F148-89BB-0C69E524BEE4.root",
        "/store/mc/RunIISummer20UL17NanoAODv9/TTToSemiLeptonic_TuneCP5_13TeV-powheg-pythia8/NANOAODSIM/106X_mc2017_realistic_v9-v1/280000/B1BD95FE-0AAF-3540-9B97-32D704A92CA3.root",
        "/store/mc/RunIISummer20UL17NanoAODv9/TTToSemiLeptonic_TuneCP5_13TeV-powheg-pythia8/NANOAODSIM/106X_mc2017_realistic_v9-v1/280000/B26622E3-5399-8A4C-B419-AD7CFDD72EA4.root",
        "/store/mc/RunIISummer20UL17NanoAODv9/TTToSemiLeptonic_TuneCP5_13TeV-powheg-pythia8/NANOAODSIM/106X_mc2017_realistic_v9-v1/280000/B26DF967-A99A-994F-B191-68B71EC81F22.root",
        "/store/mc/RunIISummer20UL17NanoAODv9/TTToSemiLeptonic_TuneCP5_13TeV-powheg-pythia8/NANOAODSIM/106X_mc2017_realistic_v9-v1/280000/B28F826B-F564-754F-9AE2-7C02E546F683.root",
        "/store/mc/RunIISummer20UL17NanoAODv9/TTToSemiLeptonic_TuneCP5_13TeV-powheg-pythia8/NANOAODSIM/106X_mc2017_realistic_v9-v1/280000/B42A12E7-9AA7-FF45-BE43-C538D2836A3A.root",
        "/store/mc/RunIISummer20UL17NanoAODv9/TTToSemiLeptonic_TuneCP5_13TeV-powheg-pythia8/NANOAODSIM/106X_mc2017_realistic_v9-v1/280000/B43AC612-4AE4-0942-AB95-CFBFEB4AF628.root",
        "/store/mc/RunIISummer20UL17NanoAODv9/TTToSemiLeptonic_TuneCP5_13TeV-powheg-pythia8/NANOAODSIM/106X_mc2017_realistic_v9-v1/280000/B6E6DADE-8977-1148-A083-B51ECFD5AC6A.root",
        "/store/mc/RunIISummer20UL17NanoAODv9/TTToSemiLeptonic_TuneCP5_13TeV-powheg-pythia8/NANOAODSIM/106X_mc2017_realistic_v9-v1/280000/B864EF70-8D0A-8642-BAC0-BDDED18AB691.root",
        "/store/mc/RunIISummer20UL17NanoAODv9/TTToSemiLeptonic_TuneCP5_13TeV-powheg-pythia8/NANOAODSIM/106X_mc2017_realistic_v9-v1/280000/BAE9C69A-703F-0848-84D5-9E7ED5CBE4E1.root",
        "/store/mc/RunIISummer20UL17NanoAODv9/TTToSemiLeptonic_TuneCP5_13TeV-powheg-pythia8/NANOAODSIM/106X_mc2017_realistic_v9-v1/280000/BB7404C5-5C27-1944-AAAC-C72D657ADA89.root"
    ]
}