{
    "TTTo2L2Nu_1": [
        "/store/mc/RunIISummer20UL17NanoAODv9/TTTo2L2Nu_TuneCP5_13TeV-powheg-pythia8/NANOAODSIM/106X_mc2017_realistic_v9-v1/2510000/011F120E-2342-D046-A22B-88307336493B.root",
        "/store/mc/RunIISummer20UL17NanoAODv9/TTTo2L2Nu_TuneCP5_13TeV-powheg-pythia8/NANOAODSIM/106X_mc2017_realistic_v9-v1/2510000/03C84A48-9047-764A-941E-258A77585277.root",
        "/store/mc/RunIISummer20UL17NanoAODv9/TTTo2L2Nu_TuneCP5_13TeV-powheg-pythia8/NANOAODSIM/106X_mc2017_realistic_v9-v1/2510000/07F196D4-5C39-CC42-9F56-B19566C4C411.root",
        "/store/mc/RunIISummer20UL17NanoAODv9/TTTo2L2Nu_TuneCP5_13TeV-powheg-pythia8/NANOAODSIM/106X_mc2017_realistic_v9-v1/2510000/10C33CC0-846D-134B-99EA-F7E4200E9A48.root",
        "/store/mc/RunIISummer20UL17NanoAODv9/TTTo2L2Nu_TuneCP5_13TeV-powheg-pythia8/NANOAODSIM/106X_mc2017_realistic_v9-v1/2510000/131109F0-D9F3-0A43-975E-265BC1CFE6FF.root",
        "/store/mc/RunIISummer20UL17NanoAODv9/TTTo2L2Nu_TuneCP5_13TeV-powheg-pythia8/NANOAODSIM/106X_mc2017_realistic_v9-v1/2510000/1504C6FC-9533-FA40-87E8-55B10C3F3E07.root",
        "/store/mc/RunIISummer20UL17NanoAODv9/TTTo2L2Nu_TuneCP5_13TeV-powheg-pythia8/NANOAODSIM/106X_mc2017_realistic_v9-v1/2510000/1DF4A2CB-D908-2648-9F63-C3DC37707E93.root"
    ]
}