{
    "TTToHadronic_1": [
        "/store/mc/RunIISummer20UL17NanoAODv9/TTToHadronic_TuneCP5_13TeV-powheg-pythia8/NANOAODSIM/106X_mc2017_realistic_v9-v1/80000/02690614-F839-404F-9C50-78EB4D97079E.root",
        "/store/mc/RunIISummer20UL17NanoAODv9/TTToHadronic_TuneCP5_13TeV-powheg-pythia8/NANOAODSIM/106X_mc2017_realistic_v9-v1/80000/050F2EF8-A61A-E642-97C0-1C6E9CDB3F21.root",
        "/store/mc/RunIISummer20UL17NanoAODv9/TTToHadronic_TuneCP5_13TeV-powheg-pythia8/NANOAODSIM/106X_mc2017_realistic_v9-v1/80000/0A4238BB-7383-A649-ABA5-41EA75BBCD5E.root",
        "/store/mc/RunIISummer20UL17NanoAODv9/TTToHadronic_TuneCP5_13TeV-powheg-pythia8/NANOAODSIM/106X_mc2017_realistic_v9-v1/80000/0AF960D5-2A29-6B42-9EC3-843D862D0A77.root",
        "/store/mc/RunIISummer20UL17NanoAODv9/TTToHadronic_TuneCP5_13TeV-powheg-pythia8/NANOAODSIM/106X_mc2017_realistic_v9-v1/80000/0D3B6792-1548-7244-A4AC-AFBB49CB2854.root",
        "/store/mc/RunIISummer20UL17NanoAODv9/TTToHadronic_TuneCP5_13TeV-powheg-pythia8/NANOAODSIM/106X_mc2017_realistic_v9-v1/80000/0DD11434-539B-FA45-8010-E66508CFC81B.root",
        "/store/mc/RunIISummer20UL17NanoAODv9/TTToHadronic_TuneCP5_13TeV-powheg-pythia8/NANOAODSIM/106X_mc2017_realistic_v9-v1/80000/0EDECC34-AAE1-7E4A-A3F8-55DB88D4273C.root",
        "/store/mc/RunIISummer20UL17NanoAODv9/TTToHadronic_TuneCP5_13TeV-powheg-pythia8/NANOAODSIM/106X_mc2017_realistic_v9-v1/80000/1094B0D1-7B5D-2449-B12A-736A4F7B7C98.root",
        "/store/mc/RunIISummer20UL17NanoAODv9/TTToHadronic_TuneCP5_13TeV-powheg-pythia8/NANOAODSIM/106X_mc2017_realistic_v9-v1/80000/109E34D6-7FF8-4841-A3E4-9E58CE14E482.root",
        "/store/mc/RunIISummer20UL17NanoAODv9/TTToHadronic_TuneCP5_13TeV-powheg-pythia8/NANOAODSIM/106X_mc2017_realistic_v9-v1/80000/175E5521-77C0-4A44-91B4-AD08834F626E.root",
        "/store/mc/RunIISummer20UL17NanoAODv9/TTToHadronic_TuneCP5_13TeV-powheg-pythia8/NANOAODSIM/106X_mc2017_realistic_v9-v1/80000/17A2D508-33B0-BE44-8EC2-F56B7DB88F84.root",
        "/store/mc/RunIISummer20UL17NanoAODv9/TTToHadronic_TuneCP5_13TeV-powheg-pythia8/NANOAODSIM/106X_mc2017_realistic_v9-v1/80000/188BBF89-6502-1744-A903-653E9324595B.root",
        "/store/mc/RunIISummer20UL17NanoAODv9/TTToHadronic_TuneCP5_13TeV-powheg-pythia8/NANOAODSIM/106X_mc2017_realistic_v9-v1/80000/18AA39E7-9246-2149-9DD5-7EFEEA112713.root",
        "/store/mc/RunIISummer20UL17NanoAODv9/TTToHadronic_TuneCP5_13TeV-powheg-pythia8/NANOAODSIM/106X_mc2017_realistic_v9-v1/80000/194B6742-22CB-794E-9483-9BC4A6A0AB18.root"
    ]
}