{
    "TTToSemiLeptonic_2": [
        "/store/mc/RunIISummer20UL17NanoAODv9/TTToSemiLeptonic_TuneCP5_13TeV-powheg-pythia8/NANOAODSIM/106X_mc2017_realistic_v9-v1/130000/7AEE45F4-DE49-954B-BAAC-2D41256E9340.root",
        "/store/mc/RunIISummer20UL17NanoAODv9/TTToSemiLeptonic_TuneCP5_13TeV-powheg-pythia8/NANOAODSIM/106X_mc2017_realistic_v9-v1/130000/84CE63F6-F7EC-CA4B-93BD-4E9B3397BC0F.root",
        "/store/mc/RunIISummer20UL17NanoAODv9/TTToSemiLeptonic_TuneCP5_13TeV-powheg-pythia8/NANOAODSIM/106X_mc2017_realistic_v9-v1/130000/8EB08C29-73D1-224E-8B08-68240A78484D.root",
        "/store/mc/RunIISummer20UL17NanoAODv9/TTToSemiLeptonic_TuneCP5_13TeV-powheg-pythia8/NANOAODSIM/106X_mc2017_realistic_v9-v1/130000/9026088D-E1D4-3944-A99B-B31B76274B8E.root",
        "/store/mc/RunIISummer20UL17NanoAODv9/TTToSemiLeptonic_TuneCP5_13TeV-powheg-pythia8/NANOAODSIM/106X_mc2017_realistic_v9-v1/130000/9AD40DC8-B63F-9048-998E-E8C9B37BB922.root",
        "/store/mc/RunIISummer20UL17NanoAODv9/TTToSemiLeptonic_TuneCP5_13TeV-powheg-pythia8/NANOAODSIM/106X_mc2017_realistic_v9-v1/130000/A783EF4C-086E-CB4B-9436-F53AAFDF5F59.root",
        "/store/mc/RunIISummer20UL17NanoAODv9/TTToSemiLeptonic_TuneCP5_13TeV-powheg-pythia8/NANOAODSIM/106X_mc2017_realistic_v9-v1/130000/AE4935D8-4523-7C49-9EAD-8C2E4A04FE6E.root",
        "/store/mc/RunIISummer20UL17NanoAODv9/TTToSemiLeptonic_TuneCP5_13TeV-powheg-pythia8/NANOAODSIM/106X_mc2017_realistic_v9-v1/130000/BC3FB8F3-4929-8146-8758-A6021E3FEF42.root",
        "/store/mc/RunIISummer20UL17NanoAODv9/TTToSemiLeptonic_TuneCP5_13TeV-powheg-pythia8/NANOAODSIM/106X_mc2017_realistic_v9-v1/130000/BF04FFF9-1AD2-5C4A-8E96-D81FE852FF8C.root",
        "/store/mc/RunIISummer20UL17NanoAODv9/TTToSemiLeptonic_TuneCP5_13TeV-powheg-pythia8/NANOAODSIM/106X_mc2017_realistic_v9-v1/130000/C07A5E25-D1B9-5B4A-A410-1596FE30B9D6.root",
        "/store/mc/RunIISummer20UL17NanoAODv9/TTToSemiLeptonic_TuneCP5_13TeV-powheg-pythia8/NANOAODSIM/106X_mc2017_realistic_v9-v1/130000/C764E809-76A0-C340-BFB5-54E0B4CECF43.root",
        "/store/mc/RunIISummer20UL17NanoAODv9/TTToSemiLeptonic_TuneCP5_13TeV-powheg-pythia8/NANOAODSIM/106X_mc2017_realistic_v9-v1/130000/EA1BBFED-3CF0-E047-B12B-8D0F5FE78ABE.root",
        "/store/mc/RunIISummer20UL17NanoAODv9/TTToSemiLeptonic_TuneCP5_13TeV-powheg-pythia8/NANOAODSIM/106X_mc2017_realistic_v9-v1/130000/EA698AC2-64D3-6A4C-B7FF-F3445629314C.root",
        "/store/mc/RunIISummer20UL17NanoAODv9/TTToSemiLeptonic_TuneCP5_13TeV-powheg-pythia8/NANOAODSIM/106X_mc2017_realistic_v9-v1/130000/F19CA422-21DA-6541-A04F-97CE60FD78C5.root",
        "/store/mc/RunIISummer20UL17NanoAODv9/TTToSemiLeptonic_TuneCP5_13TeV-powheg-pythia8/NANOAODSIM/106X_mc2017_realistic_v9-v1/130000/F81F585B-5BD1-3E49-8C2F-9DEF849D091D.root",
        "/store/mc/RunIISummer20UL17NanoAODv9/TTToSemiLeptonic_TuneCP5_13TeV-powheg-pythia8/NANOAODSIM/106X_mc2017_realistic_v9-v1/270000/0ECE9A92-C745-894C-BA31-326A01B9574D.root",
        "/store/mc/RunIISummer20UL17NanoAODv9/TTToSemiLeptonic_TuneCP5_13TeV-powheg-pythia8/NANOAODSIM/106X_mc2017_realistic_v9-v1/270000/1FC3133E-D4D4-4F45-BE28-E2341817DCB1.root",
        "/store/mc/RunIISummer20UL17NanoAODv9/TTToSemiLeptonic_TuneCP5_13TeV-powheg-pythia8/NANOAODSIM/106X_mc2017_realistic_v9-v1/270000/225654C5-5417-3948-A481-9E9E316D64F9.root",
        "/store/mc/RunIISummer20UL17NanoAODv9/TTToSemiLeptonic_TuneCP5_13TeV-powheg-pythia8/NANOAODSIM/106X_mc2017_realistic_v9-v1/270000/2F1F3BB7-FCB5-844C-92B4-E12A24177958.root",
        "/store/mc/RunIISummer20UL17NanoAODv9/TTToSemiLeptonic_TuneCP5_13TeV-powheg-pythia8/NANOAODSIM/106X_mc2017_realistic_v9-v1/270000/3EABEDC8-B55E-904D-AE35-773466B4297E.root"
    ]
}