{
    "TTToSemiLeptonic_14": [
        "/store/mc/RunIISummer20UL17NanoAODv9/TTToSemiLeptonic_TuneCP5_13TeV-powheg-pythia8/NANOAODSIM/106X_mc2017_realistic_v9-v1/280000/CDFFC04E-429D-2947-A4A6-10C6EE946F9B.root",
        "/store/mc/RunIISummer20UL17NanoAODv9/TTToSemiLeptonic_TuneCP5_13TeV-powheg-pythia8/NANOAODSIM/106X_mc2017_realistic_v9-v1/280000/D00AA33F-1465-0540-AAF9-BC414233E8DE.root",
        "/store/mc/RunIISummer20UL17NanoAODv9/TTToSemiLeptonic_TuneCP5_13TeV-powheg-pythia8/NANOAODSIM/106X_mc2017_realistic_v9-v1/280000/D12A7CE6-6285-EE40-AE6E-F6B7D42249DE.root",
        "/store/mc/RunIISummer20UL17NanoAODv9/TTToSemiLeptonic_TuneCP5_13TeV-powheg-pythia8/NANOAODSIM/106X_mc2017_realistic_v9-v1/280000/D14E7A39-14B7-434D-B7B1-550DB6DDC742.root",
        "/store/mc/RunIISummer20UL17NanoAODv9/TTToSemiLeptonic_TuneCP5_13TeV-powheg-pythia8/NANOAODSIM/106X_mc2017_realistic_v9-v1/280000/D3075B34-505E-6146-A069-3DE2D2E7EFD5.root",
        "/store/mc/RunIISummer20UL17NanoAODv9/TTToSemiLeptonic_TuneCP5_13TeV-powheg-pythia8/NANOAODSIM/106X_mc2017_realistic_v9-v1/280000/D3298592-3304-8242-A281-A9A9BCBBD680.root",
        "/store/mc/RunIISummer20UL17NanoAODv9/TTToSemiLeptonic_TuneCP5_13TeV-powheg-pythia8/NANOAODSIM/106X_mc2017_realistic_v9-v1/280000/D563AC42-FBB4-1C4C-8C55-150FAB1F9A58.root",
        "/store/mc/RunIISummer20UL17NanoAODv9/TTToSemiLeptonic_TuneCP5_13TeV-powheg-pythia8/NANOAODSIM/106X_mc2017_realistic_v9-v1/280000/D61D4A26-E5E2-0543-B890-EE22EB9D0B7A.root",
        "/store/mc/RunIISummer20UL17NanoAODv9/TTToSemiLeptonic_TuneCP5_13TeV-powheg-pythia8/NANOAODSIM/106X_mc2017_realistic_v9-v1/280000/D68CB923-0ADD-2E43-907F-B64BE9494143.root",
        "/store/mc/RunIISummer20UL17NanoAODv9/TTToSemiLeptonic_TuneCP5_13TeV-powheg-pythia8/NANOAODSIM/106X_mc2017_realistic_v9-v1/280000/D6A8C8AF-E6AD-D44E-9F18-B808EF81CF7C.root",
        "/store/mc/RunIISummer20UL17NanoAODv9/TTToSemiLeptonic_TuneCP5_13TeV-powheg-pythia8/NANOAODSIM/106X_mc2017_realistic_v9-v1/280000/D720CA9E-A884-7149-B764-AC17799B2EE8.root",
        "/store/mc/RunIISummer20UL17NanoAODv9/TTToSemiLeptonic_TuneCP5_13TeV-powheg-pythia8/NANOAODSIM/106X_mc2017_realistic_v9-v1/280000/D7ED6543-2172-CF4E-8BF0-CE12402CA674.root",
        "/store/mc/RunIISummer20UL17NanoAODv9/TTToSemiLeptonic_TuneCP5_13TeV-powheg-pythia8/NANOAODSIM/106X_mc2017_realistic_v9-v1/280000/D893F674-1A35-5A42-9D1D-9C8F620E5566.root",
        "/store/mc/RunIISummer20UL17NanoAODv9/TTToSemiLeptonic_TuneCP5_13TeV-powheg-pythia8/NANOAODSIM/106X_mc2017_realistic_v9-v1/280000/DAB45796-0776-C64B-BFCB-4AD78181A708.root",
        "/store/mc/RunIISummer20UL17NanoAODv9/TTToSemiLeptonic_TuneCP5_13TeV-powheg-pythia8/NANOAODSIM/106X_mc2017_realistic_v9-v1/280000/DB73A2DE-EF5C-AC4A-983C-BA783D370F63.root",
        "/store/mc/RunIISummer20UL17NanoAODv9/TTToSemiLeptonic_TuneCP5_13TeV-powheg-pythia8/NANOAODSIM/106X_mc2017_realistic_v9-v1/280000/DB76A0D2-1168-DF45-98AC-0793B1D7B63D.root",
        "/store/mc/RunIISummer20UL17NanoAODv9/TTToSemiLeptonic_TuneCP5_13TeV-powheg-pythia8/NANOAODSIM/106X_mc2017_realistic_v9-v1/280000/DBC2CB25-D377-7946-A448-A61A732A9482.root",
        "/store/mc/RunIISummer20UL17NanoAODv9/TTToSemiLeptonic_TuneCP5_13TeV-powheg-pythia8/NANOAODSIM/106X_mc2017_realistic_v9-v1/280000/DD410EFC-F35F-1642-A80E-84B2A45B439C.root",
        "/store/mc/RunIISummer20UL17NanoAODv9/TTToSemiLeptonic_TuneCP5_13TeV-powheg-pythia8/NANOAODSIM/106X_mc2017_realistic_v9-v1/280000/DF9336B7-C9C2-4642-B7C0-8FC49F2B649D.root"
    ]
}