{
    "TTToSemiLeptonic_7": [
        "/store/mc/RunIISummer20UL17NanoAODv9/TTToSemiLeptonic_TuneCP5_13TeV-powheg-pythia8/NANOAODSIM/106X_mc2017_realistic_v9-v1/280000/42C9AAC8-5117-E142-9CC0-47D5B845B7EE.root",
        "/store/mc/RunIISummer20UL17NanoAODv9/TTToSemiLeptonic_TuneCP5_13TeV-powheg-pythia8/NANOAODSIM/106X_mc2017_realistic_v9-v1/280000/443E6C7A-50BB-3F40-AAE7-850DD6F694F8.root",
        "/store/mc/RunIISummer20UL17NanoAODv9/TTToSemiLeptonic_TuneCP5_13TeV-powheg-pythia8/NANOAODSIM/106X_mc2017_realistic_v9-v1/280000/44556066-DE0C-3F4D-8D26-AB7C36DB3893.root",
        "/store/mc/RunIISummer20UL17NanoAODv9/TTToSemiLeptonic_TuneCP5_13TeV-powheg-pythia8/NANOAODSIM/106X_mc2017_realistic_v9-v1/280000/44E4B6E0-F64F-4E42-9F65-4EB593B48259.root",
        "/store/mc/RunIISummer20UL17NanoAODv9/TTToSemiLeptonic_TuneCP5_13TeV-powheg-pythia8/NANOAODSIM/106X_mc2017_realistic_v9-v1/280000/44ED3D53-222D-9D4A-A41D-16028FD0D6DE.root",
        "/store/mc/RunIISummer20UL17NanoAODv9/TTToSemiLeptonic_TuneCP5_13TeV-powheg-pythia8/NANOAODSIM/106X_mc2017_realistic_v9-v1/280000/468F0610-61BD-FD42-AEE4-CEC2FA253EC7.root",
        "/store/mc/RunIISummer20UL17NanoAODv9/TTToSemiLeptonic_TuneCP5_13TeV-powheg-pythia8/NANOAODSIM/106X_mc2017_realistic_v9-v1/280000/48701415-7FA2-8446-A0C5-5CD18A54F449.root",
        "/store/mc/RunIISummer20UL17NanoAODv9/TTToSemiLeptonic_TuneCP5_13TeV-powheg-pythia8/NANOAODSIM/106X_mc2017_realistic_v9-v1/280000/4A9B408A-09EE-2A42-8F99-B9FA4084BB4B.root",
        "/store/mc/RunIISummer20UL17NanoAODv9/TTToSemiLeptonic_TuneCP5_13TeV-powheg-pythia8/NANOAODSIM/106X_mc2017_realistic_v9-v1/280000/4B2147BE-AB6F-9D42-AA3F-2C335D5E6BCE.root",
        "/store/mc/RunIISummer20UL17NanoAODv9/TTToSemiLeptonic_TuneCP5_13TeV-powheg-pythia8/NANOAODSIM/106X_mc2017_realistic_v9-v1/280000/4C56BA82-7FE4-9D40-A1FC-04080A2E3386.root",
        "/store/mc/RunIISummer20UL17NanoAODv9/TTToSemiLeptonic_TuneCP5_13TeV-powheg-pythia8/NANOAODSIM/106X_mc2017_realistic_v9-v1/280000/4CA07277-0D23-DF46-8A1F-D994EE9CB15B.root",
        "/store/mc/RunIISummer20UL17NanoAODv9/TTToSemiLeptonic_TuneCP5_13TeV-powheg-pythia8/NANOAODSIM/106X_mc2017_realistic_v9-v1/280000/4D43C628-545E-E44A-8EC6-F5D262E97DE9.root",
        "/store/mc/RunIISummer20UL17NanoAODv9/TTToSemiLeptonic_TuneCP5_13TeV-powheg-pythia8/NANOAODSIM/106X_mc2017_realistic_v9-v1/280000/4DE5BEFA-27EB-714F-890C-2297B878AD58.root",
        "/store/mc/RunIISummer20UL17NanoAODv9/TTToSemiLeptonic_TuneCP5_13TeV-powheg-pythia8/NANOAODSIM/106X_mc2017_realistic_v9-v1/280000/4E70A957-9E56-FA4B-9F09-597C9401BD55.root",
        "/store/mc/RunIISummer20UL17NanoAODv9/TTToSemiLeptonic_TuneCP5_13TeV-powheg-pythia8/NANOAODSIM/106X_mc2017_realistic_v9-v1/280000/4F25F27B-458A-324B-8AD1-992B29A1FD5E.root",
        "/store/mc/RunIISummer20UL17NanoAODv9/TTToSemiLeptonic_TuneCP5_13TeV-powheg-pythia8/NANOAODSIM/106X_mc2017_realistic_v9-v1/280000/4FA8A1BC-642D-6244-B475-F11554A9720F.root",
        "/store/mc/RunIISummer20UL17NanoAODv9/TTToSemiLeptonic_TuneCP5_13TeV-powheg-pythia8/NANOAODSIM/106X_mc2017_realistic_v9-v1/280000/50570399-500C-9D45-880A-F64CD511EB0F.root",
        "/store/mc/RunIISummer20UL17NanoAODv9/TTToSemiLeptonic_TuneCP5_13TeV-powheg-pythia8/NANOAODSIM/106X_mc2017_realistic_v9-v1/280000/52AAC4EF-6D30-EA40-83C7-9AFB9ECF579B.root",
        "/store/mc/RunIISummer20UL17NanoAODv9/TTToSemiLeptonic_TuneCP5_13TeV-powheg-pythia8/NANOAODSIM/106X_mc2017_realistic_v9-v1/280000/549451D9-10EC-704C-8568-23FF9D40C9F4.root",
        "/store/mc/RunIISummer20UL17NanoAODv9/TTToSemiLeptonic_TuneCP5_13TeV-powheg-pythia8/NANOAODSIM/106X_mc2017_realistic_v9-v1/280000/54F9275A-FC5A-7844-994C-89032A041F09.root"
    ]
}