{
    "WJetsToLNu_HT-600To800_1": [
        "store/mc/RunIISummer20UL17NanoAODv9/WJetsToLNu_HT-600To800_TuneCP5_13TeV-madgraphMLM-pythia8/NANOAODSIM/106X_mc2017_realistic_v9-v1/120000/046DBB61-5056-5F49-9284-B8B0EB9A915F.root",
        "store/mc/RunIISummer20UL17NanoAODv9/WJetsToLNu_HT-600To800_TuneCP5_13TeV-madgraphMLM-pythia8/NANOAODSIM/106X_mc2017_realistic_v9-v1/130000/1F13B6A8-1E45-B442-A4A1-0F3F231F84C3.root",
        "store/mc/RunIISummer20UL17NanoAODv9/WJetsToLNu_HT-600To800_TuneCP5_13TeV-madgraphMLM-pythia8/NANOAODSIM/106X_mc2017_realistic_v9-v1/130000/F8225AC5-DD0E-134B-B5CA-85F78F8D874B.root",
        "store/mc/RunIISummer20UL17NanoAODv9/WJetsToLNu_HT-600To800_TuneCP5_13TeV-madgraphMLM-pythia8/NANOAODSIM/106X_mc2017_realistic_v9-v1/270000/1F7AB453-5493-F74C-8FE3-8C12C5080BB1.root"
    ]
}