{
    "WJetsToLNu_HT-200To400_7": [
        "store/mc/RunIISummer20UL17NanoAODv9/WJetsToLNu_HT-200To400_TuneCP5_13TeV-madgraphMLM-pythia8/NANOAODSIM/106X_mc2017_realistic_v9-v1/120000/E39D9EFE-D56D-BD43-BE5A-9079ECCE788C.root",
        "store/mc/RunIISummer20UL17NanoAODv9/WJetsToLNu_HT-200To400_TuneCP5_13TeV-madgraphMLM-pythia8/NANOAODSIM/106X_mc2017_realistic_v9-v1/120000/E6BB7AB2-8F25-CD4B-AE44-3182D06BE08B.root"
    ]
}