{
    "WJetsToLNu_HT-600To800_3": [
        "store/mc/RunIISummer20UL17NanoAODv9/WJetsToLNu_HT-600To800_TuneCP5_13TeV-madgraphMLM-pythia8/NANOAODSIM/106X_mc2017_realistic_v9-v1/280000/35D93932-FFC1-BE44-938D-B9B1D1064F97.root",
        "store/mc/RunIISummer20UL17NanoAODv9/WJetsToLNu_HT-600To800_TuneCP5_13TeV-madgraphMLM-pythia8/NANOAODSIM/106X_mc2017_realistic_v9-v1/280000/4FB493C6-183A-DF4C-BCCB-2DDC1D3B6E31.root",
        "store/mc/RunIISummer20UL17NanoAODv9/WJetsToLNu_HT-600To800_TuneCP5_13TeV-madgraphMLM-pythia8/NANOAODSIM/106X_mc2017_realistic_v9-v1/280000/505EC9A3-49CA-9747-8BEC-C356A98F82F4.root"
    ]
}