{
    "WJetsToLNu_HT-400To600_5": [
        "store/mc/RunIISummer20UL17NanoAODv9/WJetsToLNu_HT-400To600_TuneCP5_13TeV-madgraphMLM-pythia8/NANOAODSIM/106X_mc2017_realistic_v9-v1/270000/E48A4A3E-150C-1149-9977-95D00585A2B3.root",
        "store/mc/RunIISummer20UL17NanoAODv9/WJetsToLNu_HT-400To600_TuneCP5_13TeV-madgraphMLM-pythia8/NANOAODSIM/106X_mc2017_realistic_v9-v1/270000/E7DDAE4C-DAC6-0D49-8376-AF39A288E2D9.root",
        "store/mc/RunIISummer20UL17NanoAODv9/WJetsToLNu_HT-400To600_TuneCP5_13TeV-madgraphMLM-pythia8/NANOAODSIM/106X_mc2017_realistic_v9-v1/270000/EF930E1A-1BBF-D04B-B737-BD35153E4FCF.root",
        "store/mc/RunIISummer20UL17NanoAODv9/WJetsToLNu_HT-400To600_TuneCP5_13TeV-madgraphMLM-pythia8/NANOAODSIM/106X_mc2017_realistic_v9-v1/270000/F772A933-B574-0640-A56F-41C790325A1A.root",
        "store/mc/RunIISummer20UL17NanoAODv9/WJetsToLNu_HT-400To600_TuneCP5_13TeV-madgraphMLM-pythia8/NANOAODSIM/106X_mc2017_realistic_v9-v1/270000/F9CC0D58-413E-1D46-A735-2CA054E5A015.root"
    ]
}