{
    "WJetsToLNu_HT-1200To2500_15": [
        "store/mc/RunIISummer20UL17NanoAODv9/WJetsToLNu_HT-1200To2500_TuneCP5_13TeV-madgraphMLM-pythia8/NANOAODSIM/106X_mc2017_realistic_v9_ext1-v2/70000/CABD20DB-2657-B143-8B7B-D2D85DE7CE07.root",
        "store/mc/RunIISummer20UL17NanoAODv9/WJetsToLNu_HT-1200To2500_TuneCP5_13TeV-madgraphMLM-pythia8/NANOAODSIM/106X_mc2017_realistic_v9_ext1-v2/70000/D9FB52A8-0BC5-9E42-B523-F4C3FBD9C796.root",
        "store/mc/RunIISummer20UL17NanoAODv9/WJetsToLNu_HT-1200To2500_TuneCP5_13TeV-madgraphMLM-pythia8/NANOAODSIM/106X_mc2017_realistic_v9_ext1-v2/70000/EF0C7139-8804-2848-B344-9513E63C01E1.root",
        "store/mc/RunIISummer20UL17NanoAODv9/WJetsToLNu_HT-1200To2500_TuneCP5_13TeV-madgraphMLM-pythia8/NANOAODSIM/106X_mc2017_realistic_v9_ext1-v2/70000/FAD187F7-FBF9-934A-945C-63889E6FB3CA.root"
    ]
}