{
    "WJetsToLNu_HT-70To100_15": [
        "store/mc/RunIISummer20UL17NanoAODv9/WJetsToLNu_HT-70To100_TuneCP5_13TeV-madgraphMLM-pythia8/NANOAODSIM/106X_mc2017_realistic_v9-v1/270000/FA2B73FF-439C-CA45-A55A-7F1CA3C17755.root",
        "store/mc/RunIISummer20UL17NanoAODv9/WJetsToLNu_HT-70To100_TuneCP5_13TeV-madgraphMLM-pythia8/NANOAODSIM/106X_mc2017_realistic_v9-v1/40000/553D0442-9912-B04A-86E6-DB43EB1B7C57.root"
    ]
}