{
    "WJetsToLNu_HT-800To1200_1": [
        "/store/mc/RunIISummer20UL17NanoAODv9/WJetsToLNu_HT-800To1200_TuneCP5_13TeV-madgraphMLM-pythia8/NANOAODSIM/106X_mc2017_realistic_v9-v3/2520000/0258F4EE-DD45-3B40-9652-30C4F2C524D6.root",
        "/store/mc/RunIISummer20UL17NanoAODv9/WJetsToLNu_HT-800To1200_TuneCP5_13TeV-madgraphMLM-pythia8/NANOAODSIM/106X_mc2017_realistic_v9-v3/2520000/05DACEED-FFDE-BB47-993A-A8BC97564E27.root",
        "/store/mc/RunIISummer20UL17NanoAODv9/WJetsToLNu_HT-800To1200_TuneCP5_13TeV-madgraphMLM-pythia8/NANOAODSIM/106X_mc2017_realistic_v9-v3/2520000/0A8619D3-933B-0B4B-8221-BC27FBD31202.root",
        "/store/mc/RunIISummer20UL17NanoAODv9/WJetsToLNu_HT-800To1200_TuneCP5_13TeV-madgraphMLM-pythia8/NANOAODSIM/106X_mc2017_realistic_v9-v3/2520000/0F1A9ADC-CDA7-5940-914A-64D2B25EFD88.root"
    ]
}