{
    "WJetsToLNu_HT-800To1200_6": [
        "/store/mc/RunIISummer20UL17NanoAODv9/WJetsToLNu_HT-800To1200_TuneCP5_13TeV-madgraphMLM-pythia8/NANOAODSIM/106X_mc2017_realistic_v9-v3/2520000/A8572266-35BC-B341-BF22-59F27DECC3B8.root",
        "/store/mc/RunIISummer20UL17NanoAODv9/WJetsToLNu_HT-800To1200_TuneCP5_13TeV-madgraphMLM-pythia8/NANOAODSIM/106X_mc2017_realistic_v9-v3/2520000/B99E10EB-8EB9-FA44-B4F1-E34CB29C893F.root",
        "/store/mc/RunIISummer20UL17NanoAODv9/WJetsToLNu_HT-800To1200_TuneCP5_13TeV-madgraphMLM-pythia8/NANOAODSIM/106X_mc2017_realistic_v9-v3/2520000/D2B4FA2E-24A8-AE47-A695-A805F15EA7EB.root",
        "/store/mc/RunIISummer20UL17NanoAODv9/WJetsToLNu_HT-800To1200_TuneCP5_13TeV-madgraphMLM-pythia8/NANOAODSIM/106X_mc2017_realistic_v9-v3/2520000/DBDE217F-0F10-0A40-A9FD-F02310ABFE11.root"
    ]
}