{
    "WJetsToLNu_HT-200To400_6": [
        "store/mc/RunIISummer20UL17NanoAODv9/WJetsToLNu_HT-200To400_TuneCP5_13TeV-madgraphMLM-pythia8/NANOAODSIM/106X_mc2017_realistic_v9-v1/120000/CD9EBE4E-3944-6D4E-A40B-588574F8A5F5.root",
        "store/mc/RunIISummer20UL17NanoAODv9/WJetsToLNu_HT-200To400_TuneCP5_13TeV-madgraphMLM-pythia8/NANOAODSIM/106X_mc2017_realistic_v9-v1/120000/D4C7DF62-E489-184B-B353-54B6EE10068E.root"
    ]
}