{
    "WJetsToLNu_HT-100To200_10": [
        "store/mc/RunIISummer20UL17NanoAODv9/WJetsToLNu_HT-100To200_TuneCP5_13TeV-madgraphMLM-pythia8/NANOAODSIM/106X_mc2017_realistic_v9-v1/280000/93A6B5FA-E54E-3846-B1E6-09E8DA5634D8.root",
        "store/mc/RunIISummer20UL17NanoAODv9/WJetsToLNu_HT-100To200_TuneCP5_13TeV-madgraphMLM-pythia8/NANOAODSIM/106X_mc2017_realistic_v9-v1/280000/94E13C74-A10B-0B42-82A0-94876C42572C.root"
    ]
}