{
    "WJetsToLNu_HT-600To800_14": [
        "store/mc/RunIISummer20UL17NanoAODv9/WJetsToLNu_HT-600To800_TuneCP5_13TeV-madgraphMLM-pythia8/NANOAODSIM/106X_mc2017_realistic_v9_ext1-v2/40000/A65828EC-6935-2948-9DD9-66F1BF4A14F2.root",
        "store/mc/RunIISummer20UL17NanoAODv9/WJetsToLNu_HT-600To800_TuneCP5_13TeV-madgraphMLM-pythia8/NANOAODSIM/106X_mc2017_realistic_v9_ext1-v2/40000/A93A2A6B-F43D-F943-A245-9E4E85D342AF.root",
        "store/mc/RunIISummer20UL17NanoAODv9/WJetsToLNu_HT-600To800_TuneCP5_13TeV-madgraphMLM-pythia8/NANOAODSIM/106X_mc2017_realistic_v9_ext1-v2/40000/BC70162F-4188-244B-825E-AC0B45EE263F.root"
    ]
}