{
    "WJetsToLNu_HT-800To1200_10": [
        "store/mc/RunIISummer20UL17NanoAODv9/WJetsToLNu_HT-800To1200_TuneCP5_13TeV-madgraphMLM-pythia8/NANOAODSIM/106X_mc2017_realistic_v9_ext1-v2/70000/49423912-EDD4-7944-B6DF-660E39421BAB.root",
        "store/mc/RunIISummer20UL17NanoAODv9/WJetsToLNu_HT-800To1200_TuneCP5_13TeV-madgraphMLM-pythia8/NANOAODSIM/106X_mc2017_realistic_v9_ext1-v2/70000/498F4E83-DDA0-B44F-B5CA-8AE4463BF156.root",
        "store/mc/RunIISummer20UL17NanoAODv9/WJetsToLNu_HT-800To1200_TuneCP5_13TeV-madgraphMLM-pythia8/NANOAODSIM/106X_mc2017_realistic_v9_ext1-v2/70000/52517829-2010-A647-A2C9-9E72382CE7CB.root"
    ]
}