{
    "WJetsToLNu_HT-100To200_14": [
        "store/mc/RunIISummer20UL17NanoAODv9/WJetsToLNu_HT-100To200_TuneCP5_13TeV-madgraphMLM-pythia8/NANOAODSIM/106X_mc2017_realistic_v9-v1/70000/9F806865-B66B-B94B-AFFE-8E0EB8865935.root",
        "store/mc/RunIISummer20UL17NanoAODv9/WJetsToLNu_HT-100To200_TuneCP5_13TeV-madgraphMLM-pythia8/NANOAODSIM/106X_mc2017_realistic_v9-v1/70000/ADA4FF97-2C88-204B-A839-69A4A2813D46.root"
    ]
}