{
    "WJetsToLNu_HT-200To400_13": [
        "store/mc/RunIISummer20UL17NanoAODv9/WJetsToLNu_HT-200To400_TuneCP5_13TeV-madgraphMLM-pythia8/NANOAODSIM/106X_mc2017_realistic_v9-v1/270000/5E029313-9D07-8B4D-A4DE-B2690C03C90C.root",
        "store/mc/RunIISummer20UL17NanoAODv9/WJetsToLNu_HT-200To400_TuneCP5_13TeV-madgraphMLM-pythia8/NANOAODSIM/106X_mc2017_realistic_v9-v1/270000/6AD4D42E-EE85-2B4D-BD9A-74AA1587E3C9.root"
    ]
}