{
    "WJetsToLNu_HT-1200To2500_3": [
        "store/mc/RunIISummer20UL17NanoAODv9/WJetsToLNu_HT-1200To2500_TuneCP5_13TeV-madgraphMLM-pythia8/NANOAODSIM/106X_mc2017_realistic_v9-v1/270000/BA0ACD8D-262A-7741-9A67-FE3E54027CBC.root",
        "store/mc/RunIISummer20UL17NanoAODv9/WJetsToLNu_HT-1200To2500_TuneCP5_13TeV-madgraphMLM-pythia8/NANOAODSIM/106X_mc2017_realistic_v9-v1/270000/D2072E73-DEB5-6C41-9E86-FFB2E31B2881.root",
        "store/mc/RunIISummer20UL17NanoAODv9/WJetsToLNu_HT-1200To2500_TuneCP5_13TeV-madgraphMLM-pythia8/NANOAODSIM/106X_mc2017_realistic_v9-v1/270000/F03B5610-2573-D949-AB5E-087A277FB449.root",
        "store/mc/RunIISummer20UL17NanoAODv9/WJetsToLNu_HT-1200To2500_TuneCP5_13TeV-madgraphMLM-pythia8/NANOAODSIM/106X_mc2017_realistic_v9-v1/270000/F21ADE4F-31DB-BD4E-BA6A-DEC75B172C0A.root",
        "store/mc/RunIISummer20UL17NanoAODv9/WJetsToLNu_HT-1200To2500_TuneCP5_13TeV-madgraphMLM-pythia8/NANOAODSIM/106X_mc2017_realistic_v9-v1/270000/F9E3CF4A-AA30-FF40-BA5C-21CF204102E3.root"
    ]
}