{
    "WJetsToLNu_HT-1200To2500_6": [
        "store/mc/RunIISummer20UL17NanoAODv9/WJetsToLNu_HT-1200To2500_TuneCP5_13TeV-madgraphMLM-pythia8/NANOAODSIM/106X_mc2017_realistic_v9-v1/70000/6FE00D6E-E82C-E645-8CEB-D219F8034CCE.root",
        "store/mc/RunIISummer20UL17NanoAODv9/WJetsToLNu_HT-1200To2500_TuneCP5_13TeV-madgraphMLM-pythia8/NANOAODSIM/106X_mc2017_realistic_v9-v1/70000/7DFB0609-8774-6242-B015-E4D0C5740A43.root",
        "store/mc/RunIISummer20UL17NanoAODv9/WJetsToLNu_HT-1200To2500_TuneCP5_13TeV-madgraphMLM-pythia8/NANOAODSIM/106X_mc2017_realistic_v9-v1/70000/7E8D9751-C567-3947-8608-1E8CAAB5D3B9.root",
        "store/mc/RunIISummer20UL17NanoAODv9/WJetsToLNu_HT-1200To2500_TuneCP5_13TeV-madgraphMLM-pythia8/NANOAODSIM/106X_mc2017_realistic_v9-v1/70000/81C94BE4-1177-A446-B86B-AA1CA61AE871.root"
    ]
}