{
    "WJetsToLNu_HT-800To1200_7": [
        "/store/mc/RunIISummer20UL17NanoAODv9/WJetsToLNu_HT-800To1200_TuneCP5_13TeV-madgraphMLM-pythia8/NANOAODSIM/106X_mc2017_realistic_v9-v3/2520000/E0047033-7786-734D-BC4C-7FEFD6BDF083.root",
        "/store/mc/RunIISummer20UL17NanoAODv9/WJetsToLNu_HT-800To1200_TuneCP5_13TeV-madgraphMLM-pythia8/NANOAODSIM/106X_mc2017_realistic_v9-v3/2520000/E0302FC1-C480-1841-997D-CBBE49F0D081.root",
        "/store/mc/RunIISummer20UL17NanoAODv9/WJetsToLNu_HT-800To1200_TuneCP5_13TeV-madgraphMLM-pythia8/NANOAODSIM/106X_mc2017_realistic_v9-v3/40000/48DA1F9E-F8C7-544B-85F3-9887D13E1F74.root",
        "store/mc/RunIISummer20UL17NanoAODv9/WJetsToLNu_HT-800To1200_TuneCP5_13TeV-madgraphMLM-pythia8/NANOAODSIM/106X_mc2017_realistic_v9_ext1-v2/60000/0051B8C6-2B8C-B341-B1A5-4E196FA243AC.root"
    ]
}