{
    "WJetsToLNu_HT-2500ToInf_2": [
        "store/mc/RunIISummer20UL17NanoAODv9/WJetsToLNu_HT-2500ToInf_TuneCP5_13TeV-madgraphMLM-pythia8/NANOAODSIM/106X_mc2017_realistic_v9-v2/230000/32023DF4-0CED-BA4E-AB3F-EE2CBBEEE351.root"
    ]
}