{
    "WJetsToLNu_HT-400To600_4": [
        "store/mc/RunIISummer20UL17NanoAODv9/WJetsToLNu_HT-400To600_TuneCP5_13TeV-madgraphMLM-pythia8/NANOAODSIM/106X_mc2017_realistic_v9-v1/270000/B38A42E5-FE95-FB48-860A-DEC3570B4C1E.root",
        "store/mc/RunIISummer20UL17NanoAODv9/WJetsToLNu_HT-400To600_TuneCP5_13TeV-madgraphMLM-pythia8/NANOAODSIM/106X_mc2017_realistic_v9-v1/270000/B628579E-471D-1146-99E7-90042BA04127.root",
        "store/mc/RunIISummer20UL17NanoAODv9/WJetsToLNu_HT-400To600_TuneCP5_13TeV-madgraphMLM-pythia8/NANOAODSIM/106X_mc2017_realistic_v9-v1/270000/BC58FF49-35B7-EF40-97A1-E7E938F55CD8.root",
        "store/mc/RunIISummer20UL17NanoAODv9/WJetsToLNu_HT-400To600_TuneCP5_13TeV-madgraphMLM-pythia8/NANOAODSIM/106X_mc2017_realistic_v9-v1/270000/C159B5AF-F85F-F745-9492-AC735BFDC18B.root",
        "store/mc/RunIISummer20UL17NanoAODv9/WJetsToLNu_HT-400To600_TuneCP5_13TeV-madgraphMLM-pythia8/NANOAODSIM/106X_mc2017_realistic_v9-v1/270000/D31F0CC9-5052-E247-B45D-5FA7DC925A4B.root"
    ]
}