{
    "WJetsToLNu_HT-600To800_12": [
        "store/mc/RunIISummer20UL17NanoAODv9/WJetsToLNu_HT-600To800_TuneCP5_13TeV-madgraphMLM-pythia8/NANOAODSIM/106X_mc2017_realistic_v9_ext1-v2/40000/7D26EA9D-356C-984E-80B8-943C6FC132DC.root",
        "store/mc/RunIISummer20UL17NanoAODv9/WJetsToLNu_HT-600To800_TuneCP5_13TeV-madgraphMLM-pythia8/NANOAODSIM/106X_mc2017_realistic_v9_ext1-v2/40000/7E32F414-0471-3340-AFBA-F585DEE81673.root",
        "store/mc/RunIISummer20UL17NanoAODv9/WJetsToLNu_HT-600To800_TuneCP5_13TeV-madgraphMLM-pythia8/NANOAODSIM/106X_mc2017_realistic_v9_ext1-v2/40000/8367DA9F-7EC9-AC47-8AF0-CC053217766F.root"
    ]
}