{
    "WJetsToLNu_HT-400To600_2": [
        "store/mc/RunIISummer20UL17NanoAODv9/WJetsToLNu_HT-400To600_TuneCP5_13TeV-madgraphMLM-pythia8/NANOAODSIM/106X_mc2017_realistic_v9-v1/130000/38004FC2-1BD7-2B46-9A3F-708716736326.root",
        "store/mc/RunIISummer20UL17NanoAODv9/WJetsToLNu_HT-400To600_TuneCP5_13TeV-madgraphMLM-pythia8/NANOAODSIM/106X_mc2017_realistic_v9-v1/130000/766F3015-D4E2-F04D-99B1-AECC5FD9A970.root",
        "store/mc/RunIISummer20UL17NanoAODv9/WJetsToLNu_HT-400To600_TuneCP5_13TeV-madgraphMLM-pythia8/NANOAODSIM/106X_mc2017_realistic_v9-v1/270000/15C28E19-256A-E64F-BB50-778BE7900905.root",
        "store/mc/RunIISummer20UL17NanoAODv9/WJetsToLNu_HT-400To600_TuneCP5_13TeV-madgraphMLM-pythia8/NANOAODSIM/106X_mc2017_realistic_v9-v1/270000/42A743C5-E8CB-8A48-8B79-0D893AD05DD0.root",
        "store/mc/RunIISummer20UL17NanoAODv9/WJetsToLNu_HT-400To600_TuneCP5_13TeV-madgraphMLM-pythia8/NANOAODSIM/106X_mc2017_realistic_v9-v1/270000/537792FA-FC87-5544-A6C8-9E9A132746E5.root"
    ]
}