{
    "WJetsToLNu_HT-600To800_11": [
        "store/mc/RunIISummer20UL17NanoAODv9/WJetsToLNu_HT-600To800_TuneCP5_13TeV-madgraphMLM-pythia8/NANOAODSIM/106X_mc2017_realistic_v9_ext1-v2/40000/74790E38-252A-8A4F-9760-F1D6CD8579E1.root",
        "store/mc/RunIISummer20UL17NanoAODv9/WJetsToLNu_HT-600To800_TuneCP5_13TeV-madgraphMLM-pythia8/NANOAODSIM/106X_mc2017_realistic_v9_ext1-v2/40000/75920837-E907-8C42-BAF8-2CE1393550C3.root",
        "store/mc/RunIISummer20UL17NanoAODv9/WJetsToLNu_HT-600To800_TuneCP5_13TeV-madgraphMLM-pythia8/NANOAODSIM/106X_mc2017_realistic_v9_ext1-v2/40000/78DB585E-9D6A-2F42-8D83-4C332B15DAB4.root"
    ]
}