{
    "WJetsToLNu_HT-70To100_1": [
        "store/mc/RunIISummer20UL17NanoAODv9/WJetsToLNu_HT-70To100_TuneCP5_13TeV-madgraphMLM-pythia8/NANOAODSIM/106X_mc2017_realistic_v9-v1/100000/49982CFE-3A1D-1745-9D43-49433144C36E.root",
        "store/mc/RunIISummer20UL17NanoAODv9/WJetsToLNu_HT-70To100_TuneCP5_13TeV-madgraphMLM-pythia8/NANOAODSIM/106X_mc2017_realistic_v9-v1/270000/0544F02D-A982-DC4C-98C8-C9CC409E07D3.root",
        "store/mc/RunIISummer20UL17NanoAODv9/WJetsToLNu_HT-70To100_TuneCP5_13TeV-madgraphMLM-pythia8/NANOAODSIM/106X_mc2017_realistic_v9-v1/270000/0723DB87-3EEE-4A42-BD84-BED1165FF2E2.root"
    ]
}