{
    "WJetsToLNu_HT-2500ToInf_14": [
        "store/mc/RunIISummer20UL17NanoAODv9/WJetsToLNu_HT-2500ToInf_TuneCP5_13TeV-madgraphMLM-pythia8/NANOAODSIM/106X_mc2017_realistic_v9-v2/40000/4AC9FD88-D44C-7943-9C7A-884F0BA76B88.root"
    ]
}