{
    "WJetsToLNu_HT-2500ToInf_8": [
        "store/mc/RunIISummer20UL17NanoAODv9/WJetsToLNu_HT-2500ToInf_TuneCP5_13TeV-madgraphMLM-pythia8/NANOAODSIM/106X_mc2017_realistic_v9-v2/230000/835BD4D7-9C3B-5245-9E0E-059552C7CECE.root"
    ]
}