{
    "WJetsToLNu_HT-800To1200_4": [
        "/store/mc/RunIISummer20UL17NanoAODv9/WJetsToLNu_HT-800To1200_TuneCP5_13TeV-madgraphMLM-pythia8/NANOAODSIM/106X_mc2017_realistic_v9-v3/2520000/55F4EB35-C90B-F24F-9654-BFEEB0AF06DB.root",
        "/store/mc/RunIISummer20UL17NanoAODv9/WJetsToLNu_HT-800To1200_TuneCP5_13TeV-madgraphMLM-pythia8/NANOAODSIM/106X_mc2017_realistic_v9-v3/2520000/65FA49FC-58D8-E54C-AD9B-2A4E156BDE65.root",
        "/store/mc/RunIISummer20UL17NanoAODv9/WJetsToLNu_HT-800To1200_TuneCP5_13TeV-madgraphMLM-pythia8/NANOAODSIM/106X_mc2017_realistic_v9-v3/2520000/7C88A675-2D45-4948-926D-3456D40B72ED.root",
        "/store/mc/RunIISummer20UL17NanoAODv9/WJetsToLNu_HT-800To1200_TuneCP5_13TeV-madgraphMLM-pythia8/NANOAODSIM/106X_mc2017_realistic_v9-v3/2520000/7F1D1445-64EF-CF4E-B3FB-7EA15344640C.root"
    ]
}