{
    "WJetsToLNu_HT-400To600_13": [
        "store/mc/RunIISummer20UL17NanoAODv9/WJetsToLNu_HT-400To600_TuneCP5_13TeV-madgraphMLM-pythia8/NANOAODSIM/106X_mc2017_realistic_v9_ext1-v2/50000/9561A5B1-0D1B-8A47-AB8B-A32A9ABF4C36.root",
        "store/mc/RunIISummer20UL17NanoAODv9/WJetsToLNu_HT-400To600_TuneCP5_13TeV-madgraphMLM-pythia8/NANOAODSIM/106X_mc2017_realistic_v9_ext1-v2/50000/B4725748-A070-4648-BA76-E56F8133A3B3.root",
        "store/mc/RunIISummer20UL17NanoAODv9/WJetsToLNu_HT-400To600_TuneCP5_13TeV-madgraphMLM-pythia8/NANOAODSIM/106X_mc2017_realistic_v9_ext1-v2/50000/BF2C45F0-ED1F-2D45-BC2E-381A57FAC3B5.root",
        "store/mc/RunIISummer20UL17NanoAODv9/WJetsToLNu_HT-400To600_TuneCP5_13TeV-madgraphMLM-pythia8/NANOAODSIM/106X_mc2017_realistic_v9_ext1-v2/50000/C9D61EE6-9FAB-2B49-A0E3-06F5C571BB29.root"
    ]
}