{
    "WJetsToLNu_HT-200To400_2": [
        "store/mc/RunIISummer20UL17NanoAODv9/WJetsToLNu_HT-200To400_TuneCP5_13TeV-madgraphMLM-pythia8/NANOAODSIM/106X_mc2017_realistic_v9-v1/120000/2201287C-26D7-FF46-A3FC-341D4EBA49B7.root",
        "store/mc/RunIISummer20UL17NanoAODv9/WJetsToLNu_HT-200To400_TuneCP5_13TeV-madgraphMLM-pythia8/NANOAODSIM/106X_mc2017_realistic_v9-v1/120000/3515B5FE-EDFB-9540-A969-D32321527B9B.root",
        "store/mc/RunIISummer20UL17NanoAODv9/WJetsToLNu_HT-200To400_TuneCP5_13TeV-madgraphMLM-pythia8/NANOAODSIM/106X_mc2017_realistic_v9-v1/120000/3B826223-22AB-714D-B8D5-3B31EE3CA112.root"
    ]
}