{
    "WJetsToLNu_HT-2500ToInf_5": [
        "store/mc/RunIISummer20UL17NanoAODv9/WJetsToLNu_HT-2500ToInf_TuneCP5_13TeV-madgraphMLM-pythia8/NANOAODSIM/106X_mc2017_realistic_v9-v2/230000/63F82830-2C64-0F40-A19C-F56E821A11D5.root"
    ]
}