{
    "WJetsToLNu_HT-1200To2500_5": [
        "store/mc/RunIISummer20UL17NanoAODv9/WJetsToLNu_HT-1200To2500_TuneCP5_13TeV-madgraphMLM-pythia8/NANOAODSIM/106X_mc2017_realistic_v9-v1/280000/D4BB5D2B-14F4-9640-915F-64C0CE1C7C15.root",
        "store/mc/RunIISummer20UL17NanoAODv9/WJetsToLNu_HT-1200To2500_TuneCP5_13TeV-madgraphMLM-pythia8/NANOAODSIM/106X_mc2017_realistic_v9-v1/280000/FA054CBE-ABAF-DD4C-9360-88718F24738D.root",
        "store/mc/RunIISummer20UL17NanoAODv9/WJetsToLNu_HT-1200To2500_TuneCP5_13TeV-madgraphMLM-pythia8/NANOAODSIM/106X_mc2017_realistic_v9-v1/280000/FE38F0BC-5174-E64E-B77A-871ED19D95E7.root",
        "store/mc/RunIISummer20UL17NanoAODv9/WJetsToLNu_HT-1200To2500_TuneCP5_13TeV-madgraphMLM-pythia8/NANOAODSIM/106X_mc2017_realistic_v9-v1/70000/20008BD9-5064-F64A-A174-F12712F682AD.root",
        "store/mc/RunIISummer20UL17NanoAODv9/WJetsToLNu_HT-1200To2500_TuneCP5_13TeV-madgraphMLM-pythia8/NANOAODSIM/106X_mc2017_realistic_v9-v1/70000/33443D0A-6553-3D46-A8E0-E22FB6A1EE2F.root"
    ]
}