{
    "WJetsToLNu_HT-2500ToInf_12": [
        "store/mc/RunIISummer20UL17NanoAODv9/WJetsToLNu_HT-2500ToInf_TuneCP5_13TeV-madgraphMLM-pythia8/NANOAODSIM/106X_mc2017_realistic_v9-v2/2510000/126FA709-70CE-D940-96A2-97385B2C7135.root"
    ]
}