{
    "WJetsToLNu_HT-200To400_14": [
        "store/mc/RunIISummer20UL17NanoAODv9/WJetsToLNu_HT-200To400_TuneCP5_13TeV-madgraphMLM-pythia8/NANOAODSIM/106X_mc2017_realistic_v9-v1/270000/6FF97211-8D57-E34D-82E0-1FBC9DD7F306.root",
        "store/mc/RunIISummer20UL17NanoAODv9/WJetsToLNu_HT-200To400_TuneCP5_13TeV-madgraphMLM-pythia8/NANOAODSIM/106X_mc2017_realistic_v9-v1/270000/A310BC10-F401-3E4D-AB72-659C63DC3EA0.root"
    ]
}