{
    "WJetsToLNu_HT-100To200_1": [
        "store/mc/RunIISummer20UL17NanoAODv9/WJetsToLNu_HT-100To200_TuneCP5_13TeV-madgraphMLM-pythia8/NANOAODSIM/106X_mc2017_realistic_v9-v1/130000/05158912-7616-504A-9C86-868C8A470DFE.root",
        "store/mc/RunIISummer20UL17NanoAODv9/WJetsToLNu_HT-100To200_TuneCP5_13TeV-madgraphMLM-pythia8/NANOAODSIM/106X_mc2017_realistic_v9-v1/130000/07BB95E0-28CD-8B4E-80B1-0E840994C6A5.root",
        "store/mc/RunIISummer20UL17NanoAODv9/WJetsToLNu_HT-100To200_TuneCP5_13TeV-madgraphMLM-pythia8/NANOAODSIM/106X_mc2017_realistic_v9-v1/130000/24EA8A6C-98FB-C84E-8200-C79355A84781.root"
    ]
}