{
    "WJetsToLNu_HT-1200To2500_13": [
        "store/mc/RunIISummer20UL17NanoAODv9/WJetsToLNu_HT-1200To2500_TuneCP5_13TeV-madgraphMLM-pythia8/NANOAODSIM/106X_mc2017_realistic_v9_ext1-v2/70000/9C49C8BF-8013-304C-A6FF-C38300686A3F.root",
        "store/mc/RunIISummer20UL17NanoAODv9/WJetsToLNu_HT-1200To2500_TuneCP5_13TeV-madgraphMLM-pythia8/NANOAODSIM/106X_mc2017_realistic_v9_ext1-v2/70000/A1D0B336-10BE-2F4E-96F2-3F28EF270922.root",
        "store/mc/RunIISummer20UL17NanoAODv9/WJetsToLNu_HT-1200To2500_TuneCP5_13TeV-madgraphMLM-pythia8/NANOAODSIM/106X_mc2017_realistic_v9_ext1-v2/70000/AE21382A-4240-A046-B355-84149F9D4D37.root",
        "store/mc/RunIISummer20UL17NanoAODv9/WJetsToLNu_HT-1200To2500_TuneCP5_13TeV-madgraphMLM-pythia8/NANOAODSIM/106X_mc2017_realistic_v9_ext1-v2/70000/BB500A76-8D3D-5B48-A4E6-975B300F2163.root"
    ]
}