{
    "WJetsToLNu_HT-70To100_14": [
        "store/mc/RunIISummer20UL17NanoAODv9/WJetsToLNu_HT-70To100_TuneCP5_13TeV-madgraphMLM-pythia8/NANOAODSIM/106X_mc2017_realistic_v9-v1/270000/F64D2B4D-A3C6-EE4E-AD81-7CF251AE61BE.root",
        "store/mc/RunIISummer20UL17NanoAODv9/WJetsToLNu_HT-70To100_TuneCP5_13TeV-madgraphMLM-pythia8/NANOAODSIM/106X_mc2017_realistic_v9-v1/270000/F90341A6-A3C3-324D-8137-014F43326D2C.root"
    ]
}