{
    "WJetsToLNu_HT-2500ToInf_7": [
        "store/mc/RunIISummer20UL17NanoAODv9/WJetsToLNu_HT-2500ToInf_TuneCP5_13TeV-madgraphMLM-pythia8/NANOAODSIM/106X_mc2017_realistic_v9-v2/230000/75B7C71A-EF34-4141-A0C1-FAB5DD372CBD.root"
    ]
}