{
    "WZ_3": [
        "/store/mc/RunIISummer20UL17NanoAODv9/WZ_TuneCP5_13TeV-pythia8/NANOAODSIM/106X_mc2017_realistic_v9-v1/270000/34A260AF-5CF4-5648-BF9F-B84B7A5F2859.root",
        "/store/mc/RunIISummer20UL17NanoAODv9/WZ_TuneCP5_13TeV-pythia8/NANOAODSIM/106X_mc2017_realistic_v9-v1/270000/57183F7B-DFD4-2F4A-8D0E-30146B8180B3.root"
    ]
}